[
  {
    "gender": "f",
    "ageInMonths": "5",
    "pal": "1.4",
    "factor": 1,
    "energy": "690-828",
    "protein": {
      "target": {
        "min": 11,
        "max": 11
      },
      "levels": [
        100,
        99.9,
        80,
        0
      ]
    },
    "totalFat": {
      "target": {
        "min": 35,
        "max": 45
      },
      "levels": [
        0,
        45,
        50,
        100
      ]
    },
    "saturatedFat": {
      "target": {
        "min": 0,
        "max": 10
      },
      "levels": [
        0,
        12,
        12.5,
        100
      ]
    },
    "freeSugar": {
      "target": {
        "min": 0,
        "max": 10
      },
      "levels": [
        0,
        10,
        100
      ]
    },
    "vitaminA": {
      "target": {
        "min": 400,
        "max": 400
      },
      "levels": [
        100,
        90,
        75,
        50,
        0
      ]
    },
    "vitaminB2": {
      "target": {
        "min": 0.4,
        "max": 0.4
      },
      "levels": [
        100,
        90,
        75,
        50,
        0
      ]
    },
    "vitaminB12": {
      "target": {
        "min": 1.4,
        "max": 1.4
      },
      "levels": [
        100,
        90,
        75,
        50,
        0
      ]
    },
    "vitaminC": {
      "target": {
        "min": 20,
        "max": 20
      },
      "levels": [
        100,
        90,
        75,
        50,
        0
      ]
    },
    "calcium": {
      "target": {
        "min": 330,
        "max": 330
      },
      "levels": [
        100,
        90,
        75,
        50,
        0
      ]
    },
    "folate": {
      "target": {
        "min": 80,
        "max": 80
      },
      "levels": [
        100,
        90,
        75,
        50,
        0
      ]
    },
    "iodine": {
      "target": {
        "min": 80,
        "max": 80
      },
      "levels": [
        100,
        90,
        75,
        50,
        0
      ]
    },
    "iron": {
      "target": {
        "min": 8,
        "max": 8
      },
      "levels": [
        100,
        90,
        75,
        50,
        0
      ]
    },
    "magnesium": {
      "target": {
        "min": 80,
        "max": 80
      },
      "levels": [
        100,
        90,
        75,
        50,
        0
      ]
    },
    "zinc": {
      "target": {
        "min": 2.5,
        "max": 2.5
      },
      "levels": [
        100,
        90,
        75,
        50,
        0
      ]
    },
    "omega3": {
      "target": {
        "min": 0.5,
        "max": 0.5
      },
      "levels": [
        100,
        90,
        75,
        50,
        0
      ]
    },
    "omega6": {
      "target": {
        "min": 3.5,
        "max": 3.5
      },
      "levels": [
        100,
        90,
        75,
        50,
        0
      ]
    },
    "epaDha": {
      "target": {
        "min": 0,
        "max": 0
      },
      "levels": null
    },
    "dha": {
      "target": {
        "min": 100,
        "max": 100
      },
      "levels": [
        100,
        99,
        0
      ]
    }
  },
  {
    "gender": "f",
    "ageInMonths": "6",
    "pal": "1.4",
    "factor": 1,
    "energy": "730-876",
    "protein": {
      "target": {
        "min": 11,
        "max": 11
      },
      "levels": [
        100,
        99.9,
        80,
        0
      ]
    },
    "totalFat": {
      "target": {
        "min": 35,
        "max": 45
      },
      "levels": [
        0,
        45,
        50,
        100
      ]
    },
    "saturatedFat": {
      "target": {
        "min": 0,
        "max": 10
      },
      "levels": [
        0,
        12,
        12.5,
        100
      ]
    },
    "freeSugar": {
      "target": {
        "min": 0,
        "max": 10
      },
      "levels": [
        0,
        10,
        100
      ]
    },
    "vitaminA": {
      "target": {
        "min": 400,
        "max": 400
      },
      "levels": [
        100,
        90,
        75,
        50,
        0
      ]
    },
    "vitaminB2": {
      "target": {
        "min": 0.4,
        "max": 0.4
      },
      "levels": [
        100,
        90,
        75,
        50,
        0
      ]
    },
    "vitaminB12": {
      "target": {
        "min": 1.4,
        "max": 1.4
      },
      "levels": [
        100,
        90,
        75,
        50,
        0
      ]
    },
    "vitaminC": {
      "target": {
        "min": 20,
        "max": 20
      },
      "levels": [
        100,
        90,
        75,
        50,
        0
      ]
    },
    "calcium": {
      "target": {
        "min": 330,
        "max": 330
      },
      "levels": [
        100,
        90,
        75,
        50,
        0
      ]
    },
    "folate": {
      "target": {
        "min": 80,
        "max": 80
      },
      "levels": [
        100,
        90,
        75,
        50,
        0
      ]
    },
    "iodine": {
      "target": {
        "min": 80,
        "max": 80
      },
      "levels": [
        100,
        90,
        75,
        50,
        0
      ]
    },
    "iron": {
      "target": {
        "min": 8,
        "max": 8
      },
      "levels": [
        100,
        90,
        75,
        50,
        0
      ]
    },
    "magnesium": {
      "target": {
        "min": 80,
        "max": 80
      },
      "levels": [
        100,
        90,
        75,
        50,
        0
      ]
    },
    "zinc": {
      "target": {
        "min": 2.5,
        "max": 2.5
      },
      "levels": [
        100,
        90,
        75,
        50,
        0
      ]
    },
    "omega3": {
      "target": {
        "min": 0.5,
        "max": 0.5
      },
      "levels": [
        100,
        90,
        75,
        50,
        0
      ]
    },
    "omega6": {
      "target": {
        "min": 3.5,
        "max": 3.5
      },
      "levels": [
        100,
        90,
        75,
        50,
        0
      ]
    },
    "epaDha": {
      "target": {
        "min": 0,
        "max": 0
      },
      "levels": null
    },
    "dha": {
      "target": {
        "min": 100,
        "max": 100
      },
      "levels": [
        100,
        99,
        0
      ]
    }
  },
  {
    "gender": "f",
    "ageInMonths": "7",
    "pal": "1.4",
    "factor": 1,
    "energy": "760-912",
    "protein": {
      "target": {
        "min": 11,
        "max": 11
      },
      "levels": [
        100,
        99.9,
        80,
        0
      ]
    },
    "totalFat": {
      "target": {
        "min": 35,
        "max": 45
      },
      "levels": [
        0,
        45,
        50,
        100
      ]
    },
    "saturatedFat": {
      "target": {
        "min": 0,
        "max": 10
      },
      "levels": [
        0,
        12,
        12.5,
        100
      ]
    },
    "freeSugar": {
      "target": {
        "min": 0,
        "max": 10
      },
      "levels": [
        0,
        10,
        100
      ]
    },
    "vitaminA": {
      "target": {
        "min": 400,
        "max": 400
      },
      "levels": [
        100,
        90,
        75,
        50,
        0
      ]
    },
    "vitaminB2": {
      "target": {
        "min": 0.4,
        "max": 0.4
      },
      "levels": [
        100,
        90,
        75,
        50,
        0
      ]
    },
    "vitaminB12": {
      "target": {
        "min": 1.4,
        "max": 1.4
      },
      "levels": [
        100,
        90,
        75,
        50,
        0
      ]
    },
    "vitaminC": {
      "target": {
        "min": 20,
        "max": 20
      },
      "levels": [
        100,
        90,
        75,
        50,
        0
      ]
    },
    "calcium": {
      "target": {
        "min": 330,
        "max": 330
      },
      "levels": [
        100,
        90,
        75,
        50,
        0
      ]
    },
    "folate": {
      "target": {
        "min": 80,
        "max": 80
      },
      "levels": [
        100,
        90,
        75,
        50,
        0
      ]
    },
    "iodine": {
      "target": {
        "min": 80,
        "max": 80
      },
      "levels": [
        100,
        90,
        75,
        50,
        0
      ]
    },
    "iron": {
      "target": {
        "min": 8,
        "max": 8
      },
      "levels": [
        100,
        90,
        75,
        50,
        0
      ]
    },
    "magnesium": {
      "target": {
        "min": 80,
        "max": 80
      },
      "levels": [
        100,
        90,
        75,
        50,
        0
      ]
    },
    "zinc": {
      "target": {
        "min": 2.5,
        "max": 2.5
      },
      "levels": [
        100,
        90,
        75,
        50,
        0
      ]
    },
    "omega3": {
      "target": {
        "min": 0.5,
        "max": 0.5
      },
      "levels": [
        100,
        90,
        75,
        50,
        0
      ]
    },
    "omega6": {
      "target": {
        "min": 3.5,
        "max": 3.5
      },
      "levels": [
        100,
        90,
        75,
        50,
        0
      ]
    },
    "epaDha": {
      "target": {
        "min": 0,
        "max": 0
      },
      "levels": null
    },
    "dha": {
      "target": {
        "min": 100,
        "max": 100
      },
      "levels": [
        100,
        99,
        0
      ]
    }
  },
  {
    "gender": "f",
    "ageInMonths": "8",
    "pal": "1.4",
    "factor": 1,
    "energy": "790-948",
    "protein": {
      "target": {
        "min": 11,
        "max": 11
      },
      "levels": [
        100,
        99.9,
        80,
        0
      ]
    },
    "totalFat": {
      "target": {
        "min": 35,
        "max": 45
      },
      "levels": [
        0,
        45,
        50,
        100
      ]
    },
    "saturatedFat": {
      "target": {
        "min": 0,
        "max": 10
      },
      "levels": [
        0,
        12,
        12.5,
        100
      ]
    },
    "freeSugar": {
      "target": {
        "min": 0,
        "max": 10
      },
      "levels": [
        0,
        10,
        100
      ]
    },
    "vitaminA": {
      "target": {
        "min": 400,
        "max": 400
      },
      "levels": [
        100,
        90,
        75,
        50,
        0
      ]
    },
    "vitaminB2": {
      "target": {
        "min": 0.4,
        "max": 0.4
      },
      "levels": [
        100,
        90,
        75,
        50,
        0
      ]
    },
    "vitaminB12": {
      "target": {
        "min": 1.4,
        "max": 1.4
      },
      "levels": [
        100,
        90,
        75,
        50,
        0
      ]
    },
    "vitaminC": {
      "target": {
        "min": 20,
        "max": 20
      },
      "levels": [
        100,
        90,
        75,
        50,
        0
      ]
    },
    "calcium": {
      "target": {
        "min": 330,
        "max": 330
      },
      "levels": [
        100,
        90,
        75,
        50,
        0
      ]
    },
    "folate": {
      "target": {
        "min": 80,
        "max": 80
      },
      "levels": [
        100,
        90,
        75,
        50,
        0
      ]
    },
    "iodine": {
      "target": {
        "min": 80,
        "max": 80
      },
      "levels": [
        100,
        90,
        75,
        50,
        0
      ]
    },
    "iron": {
      "target": {
        "min": 8,
        "max": 8
      },
      "levels": [
        100,
        90,
        75,
        50,
        0
      ]
    },
    "magnesium": {
      "target": {
        "min": 80,
        "max": 80
      },
      "levels": [
        100,
        90,
        75,
        50,
        0
      ]
    },
    "zinc": {
      "target": {
        "min": 2.5,
        "max": 2.5
      },
      "levels": [
        100,
        90,
        75,
        50,
        0
      ]
    },
    "omega3": {
      "target": {
        "min": 0.5,
        "max": 0.5
      },
      "levels": [
        100,
        90,
        75,
        50,
        0
      ]
    },
    "omega6": {
      "target": {
        "min": 3.5,
        "max": 3.5
      },
      "levels": [
        100,
        90,
        75,
        50,
        0
      ]
    },
    "epaDha": {
      "target": {
        "min": 0,
        "max": 0
      },
      "levels": null
    },
    "dha": {
      "target": {
        "min": 100,
        "max": 100
      },
      "levels": [
        100,
        99,
        0
      ]
    }
  },
  {
    "gender": "f",
    "ageInMonths": "9",
    "pal": "1.4",
    "factor": 1,
    "energy": "820-984",
    "protein": {
      "target": {
        "min": 11,
        "max": 11
      },
      "levels": [
        100,
        99.9,
        80,
        0
      ]
    },
    "totalFat": {
      "target": {
        "min": 35,
        "max": 45
      },
      "levels": [
        0,
        45,
        50,
        100
      ]
    },
    "saturatedFat": {
      "target": {
        "min": 0,
        "max": 10
      },
      "levels": [
        0,
        12,
        12.5,
        100
      ]
    },
    "freeSugar": {
      "target": {
        "min": 0,
        "max": 10
      },
      "levels": [
        0,
        10,
        100
      ]
    },
    "vitaminA": {
      "target": {
        "min": 400,
        "max": 400
      },
      "levels": [
        100,
        90,
        75,
        50,
        0
      ]
    },
    "vitaminB2": {
      "target": {
        "min": 0.4,
        "max": 0.4
      },
      "levels": [
        100,
        90,
        75,
        50,
        0
      ]
    },
    "vitaminB12": {
      "target": {
        "min": 1.4,
        "max": 1.4
      },
      "levels": [
        100,
        90,
        75,
        50,
        0
      ]
    },
    "vitaminC": {
      "target": {
        "min": 20,
        "max": 20
      },
      "levels": [
        100,
        90,
        75,
        50,
        0
      ]
    },
    "calcium": {
      "target": {
        "min": 330,
        "max": 330
      },
      "levels": [
        100,
        90,
        75,
        50,
        0
      ]
    },
    "folate": {
      "target": {
        "min": 80,
        "max": 80
      },
      "levels": [
        100,
        90,
        75,
        50,
        0
      ]
    },
    "iodine": {
      "target": {
        "min": 80,
        "max": 80
      },
      "levels": [
        100,
        90,
        75,
        50,
        0
      ]
    },
    "iron": {
      "target": {
        "min": 8,
        "max": 8
      },
      "levels": [
        100,
        90,
        75,
        50,
        0
      ]
    },
    "magnesium": {
      "target": {
        "min": 80,
        "max": 80
      },
      "levels": [
        100,
        90,
        75,
        50,
        0
      ]
    },
    "zinc": {
      "target": {
        "min": 2.5,
        "max": 2.5
      },
      "levels": [
        100,
        90,
        75,
        50,
        0
      ]
    },
    "omega3": {
      "target": {
        "min": 0.5,
        "max": 0.5
      },
      "levels": [
        100,
        90,
        75,
        50,
        0
      ]
    },
    "omega6": {
      "target": {
        "min": 3.5,
        "max": 3.5
      },
      "levels": [
        100,
        90,
        75,
        50,
        0
      ]
    },
    "epaDha": {
      "target": {
        "min": 0,
        "max": 0
      },
      "levels": null
    },
    "dha": {
      "target": {
        "min": 100,
        "max": 100
      },
      "levels": [
        100,
        99,
        0
      ]
    }
  },
  {
    "gender": "f",
    "ageInMonths": "10",
    "pal": "1.4",
    "factor": 1,
    "energy": "850-1020",
    "protein": {
      "target": {
        "min": 11,
        "max": 11
      },
      "levels": [
        100,
        99.9,
        80,
        0
      ]
    },
    "totalFat": {
      "target": {
        "min": 35,
        "max": 45
      },
      "levels": [
        0,
        45,
        50,
        100
      ]
    },
    "saturatedFat": {
      "target": {
        "min": 0,
        "max": 10
      },
      "levels": [
        0,
        12,
        12.5,
        100
      ]
    },
    "freeSugar": {
      "target": {
        "min": 0,
        "max": 10
      },
      "levels": [
        0,
        10,
        100
      ]
    },
    "vitaminA": {
      "target": {
        "min": 400,
        "max": 400
      },
      "levels": [
        100,
        90,
        75,
        50,
        0
      ]
    },
    "vitaminB2": {
      "target": {
        "min": 0.4,
        "max": 0.4
      },
      "levels": [
        100,
        90,
        75,
        50,
        0
      ]
    },
    "vitaminB12": {
      "target": {
        "min": 1.4,
        "max": 1.4
      },
      "levels": [
        100,
        90,
        75,
        50,
        0
      ]
    },
    "vitaminC": {
      "target": {
        "min": 20,
        "max": 20
      },
      "levels": [
        100,
        90,
        75,
        50,
        0
      ]
    },
    "calcium": {
      "target": {
        "min": 330,
        "max": 330
      },
      "levels": [
        100,
        90,
        75,
        50,
        0
      ]
    },
    "folate": {
      "target": {
        "min": 80,
        "max": 80
      },
      "levels": [
        100,
        90,
        75,
        50,
        0
      ]
    },
    "iodine": {
      "target": {
        "min": 80,
        "max": 80
      },
      "levels": [
        100,
        90,
        75,
        50,
        0
      ]
    },
    "iron": {
      "target": {
        "min": 8,
        "max": 8
      },
      "levels": [
        100,
        90,
        75,
        50,
        0
      ]
    },
    "magnesium": {
      "target": {
        "min": 80,
        "max": 80
      },
      "levels": [
        100,
        90,
        75,
        50,
        0
      ]
    },
    "zinc": {
      "target": {
        "min": 2.5,
        "max": 2.5
      },
      "levels": [
        100,
        90,
        75,
        50,
        0
      ]
    },
    "omega3": {
      "target": {
        "min": 0.5,
        "max": 0.5
      },
      "levels": [
        100,
        90,
        75,
        50,
        0
      ]
    },
    "omega6": {
      "target": {
        "min": 3.5,
        "max": 3.5
      },
      "levels": [
        100,
        90,
        75,
        50,
        0
      ]
    },
    "epaDha": {
      "target": {
        "min": 0,
        "max": 0
      },
      "levels": null
    },
    "dha": {
      "target": {
        "min": 100,
        "max": 100
      },
      "levels": [
        100,
        99,
        0
      ]
    }
  },
  {
    "gender": "f",
    "ageInMonths": "11",
    "pal": "1.4",
    "factor": 1,
    "energy": "870-1044",
    "protein": {
      "target": {
        "min": 11,
        "max": 11
      },
      "levels": [
        100,
        99.9,
        80,
        0
      ]
    },
    "totalFat": {
      "target": {
        "min": 35,
        "max": 45
      },
      "levels": [
        0,
        45,
        50,
        100
      ]
    },
    "saturatedFat": {
      "target": {
        "min": 0,
        "max": 10
      },
      "levels": [
        0,
        12,
        12.5,
        100
      ]
    },
    "freeSugar": {
      "target": {
        "min": 0,
        "max": 10
      },
      "levels": [
        0,
        10,
        100
      ]
    },
    "vitaminA": {
      "target": {
        "min": 400,
        "max": 400
      },
      "levels": [
        100,
        90,
        75,
        50,
        0
      ]
    },
    "vitaminB2": {
      "target": {
        "min": 0.4,
        "max": 0.4
      },
      "levels": [
        100,
        90,
        75,
        50,
        0
      ]
    },
    "vitaminB12": {
      "target": {
        "min": 1.4,
        "max": 1.4
      },
      "levels": [
        100,
        90,
        75,
        50,
        0
      ]
    },
    "vitaminC": {
      "target": {
        "min": 20,
        "max": 20
      },
      "levels": [
        100,
        90,
        75,
        50,
        0
      ]
    },
    "calcium": {
      "target": {
        "min": 330,
        "max": 330
      },
      "levels": [
        100,
        90,
        75,
        50,
        0
      ]
    },
    "folate": {
      "target": {
        "min": 80,
        "max": 80
      },
      "levels": [
        100,
        90,
        75,
        50,
        0
      ]
    },
    "iodine": {
      "target": {
        "min": 80,
        "max": 80
      },
      "levels": [
        100,
        90,
        75,
        50,
        0
      ]
    },
    "iron": {
      "target": {
        "min": 8,
        "max": 8
      },
      "levels": [
        100,
        90,
        75,
        50,
        0
      ]
    },
    "magnesium": {
      "target": {
        "min": 80,
        "max": 80
      },
      "levels": [
        100,
        90,
        75,
        50,
        0
      ]
    },
    "zinc": {
      "target": {
        "min": 2.5,
        "max": 2.5
      },
      "levels": [
        100,
        90,
        75,
        50,
        0
      ]
    },
    "omega3": {
      "target": {
        "min": 0.5,
        "max": 0.5
      },
      "levels": [
        100,
        90,
        75,
        50,
        0
      ]
    },
    "omega6": {
      "target": {
        "min": 3.5,
        "max": 3.5
      },
      "levels": [
        100,
        90,
        75,
        50,
        0
      ]
    },
    "epaDha": {
      "target": {
        "min": 0,
        "max": 0
      },
      "levels": null
    },
    "dha": {
      "target": {
        "min": 100,
        "max": 100
      },
      "levels": [
        100,
        99,
        0
      ]
    }
  },
  {
    "gender": "m",
    "ageInMonths": "5",
    "pal": "1.4",
    "factor": 1,
    "energy": "750-900",
    "protein": {
      "target": {
        "min": 11,
        "max": 11
      },
      "levels": [
        100,
        99.9,
        80,
        0
      ]
    },
    "totalFat": {
      "target": {
        "min": 35,
        "max": 45
      },
      "levels": [
        0,
        45,
        50,
        100
      ]
    },
    "saturatedFat": {
      "target": {
        "min": 0,
        "max": 10
      },
      "levels": [
        0,
        12,
        12.5,
        100
      ]
    },
    "freeSugar": {
      "target": {
        "min": 0,
        "max": 10
      },
      "levels": [
        0,
        10,
        100
      ]
    },
    "vitaminA": {
      "target": {
        "min": 400,
        "max": 400
      },
      "levels": [
        100,
        90,
        75,
        50,
        0
      ]
    },
    "vitaminB2": {
      "target": {
        "min": 0.4,
        "max": 0.4
      },
      "levels": [
        100,
        90,
        75,
        50,
        0
      ]
    },
    "vitaminB12": {
      "target": {
        "min": 1.4,
        "max": 1.4
      },
      "levels": [
        100,
        90,
        75,
        50,
        0
      ]
    },
    "vitaminC": {
      "target": {
        "min": 20,
        "max": 20
      },
      "levels": [
        100,
        90,
        75,
        50,
        0
      ]
    },
    "calcium": {
      "target": {
        "min": 330,
        "max": 330
      },
      "levels": [
        100,
        90,
        75,
        50,
        0
      ]
    },
    "folate": {
      "target": {
        "min": 80,
        "max": 80
      },
      "levels": [
        100,
        90,
        75,
        50,
        0
      ]
    },
    "iodine": {
      "target": {
        "min": 80,
        "max": 80
      },
      "levels": [
        100,
        90,
        75,
        50,
        0
      ]
    },
    "iron": {
      "target": {
        "min": 8,
        "max": 8
      },
      "levels": [
        100,
        90,
        75,
        50,
        0
      ]
    },
    "magnesium": {
      "target": {
        "min": 80,
        "max": 80
      },
      "levels": [
        100,
        90,
        75,
        50,
        0
      ]
    },
    "zinc": {
      "target": {
        "min": 2.5,
        "max": 2.5
      },
      "levels": [
        100,
        90,
        75,
        50,
        0
      ]
    },
    "omega3": {
      "target": {
        "min": 0.5,
        "max": 0.5
      },
      "levels": [
        100,
        90,
        75,
        50,
        0
      ]
    },
    "omega6": {
      "target": {
        "min": 3.5,
        "max": 3.5
      },
      "levels": [
        100,
        90,
        75,
        50,
        0
      ]
    },
    "epaDha": {
      "target": {
        "min": 0,
        "max": 0
      },
      "levels": null
    },
    "dha": {
      "target": {
        "min": 100,
        "max": 100
      },
      "levels": [
        100,
        99,
        0
      ]
    }
  },
  {
    "gender": "m",
    "ageInMonths": "6",
    "pal": "1.4",
    "factor": 1,
    "energy": "790-948",
    "protein": {
      "target": {
        "min": 11,
        "max": 11
      },
      "levels": [
        100,
        99.9,
        80,
        0
      ]
    },
    "totalFat": {
      "target": {
        "min": 35,
        "max": 45
      },
      "levels": [
        0,
        45,
        50,
        100
      ]
    },
    "saturatedFat": {
      "target": {
        "min": 0,
        "max": 10
      },
      "levels": [
        0,
        12,
        12.5,
        100
      ]
    },
    "freeSugar": {
      "target": {
        "min": 0,
        "max": 10
      },
      "levels": [
        0,
        10,
        100
      ]
    },
    "vitaminA": {
      "target": {
        "min": 400,
        "max": 400
      },
      "levels": [
        100,
        90,
        75,
        50,
        0
      ]
    },
    "vitaminB2": {
      "target": {
        "min": 0.4,
        "max": 0.4
      },
      "levels": [
        100,
        90,
        75,
        50,
        0
      ]
    },
    "vitaminB12": {
      "target": {
        "min": 1.4,
        "max": 1.4
      },
      "levels": [
        100,
        90,
        75,
        50,
        0
      ]
    },
    "vitaminC": {
      "target": {
        "min": 20,
        "max": 20
      },
      "levels": [
        100,
        90,
        75,
        50,
        0
      ]
    },
    "calcium": {
      "target": {
        "min": 330,
        "max": 330
      },
      "levels": [
        100,
        90,
        75,
        50,
        0
      ]
    },
    "folate": {
      "target": {
        "min": 80,
        "max": 80
      },
      "levels": [
        100,
        90,
        75,
        50,
        0
      ]
    },
    "iodine": {
      "target": {
        "min": 80,
        "max": 80
      },
      "levels": [
        100,
        90,
        75,
        50,
        0
      ]
    },
    "iron": {
      "target": {
        "min": 8,
        "max": 8
      },
      "levels": [
        100,
        90,
        75,
        50,
        0
      ]
    },
    "magnesium": {
      "target": {
        "min": 80,
        "max": 80
      },
      "levels": [
        100,
        90,
        75,
        50,
        0
      ]
    },
    "zinc": {
      "target": {
        "min": 2.5,
        "max": 2.5
      },
      "levels": [
        100,
        90,
        75,
        50,
        0
      ]
    },
    "omega3": {
      "target": {
        "min": 0.5,
        "max": 0.5
      },
      "levels": [
        100,
        90,
        75,
        50,
        0
      ]
    },
    "omega6": {
      "target": {
        "min": 3.5,
        "max": 3.5
      },
      "levels": [
        100,
        90,
        75,
        50,
        0
      ]
    },
    "epaDha": {
      "target": {
        "min": 0,
        "max": 0
      },
      "levels": null
    },
    "dha": {
      "target": {
        "min": 100,
        "max": 100
      },
      "levels": [
        100,
        99,
        0
      ]
    }
  },
  {
    "gender": "m",
    "ageInMonths": "7",
    "pal": "1.4",
    "factor": 1,
    "energy": "830-996",
    "protein": {
      "target": {
        "min": 11,
        "max": 11
      },
      "levels": [
        100,
        99.9,
        80,
        0
      ]
    },
    "totalFat": {
      "target": {
        "min": 35,
        "max": 45
      },
      "levels": [
        0,
        45,
        50,
        100
      ]
    },
    "saturatedFat": {
      "target": {
        "min": 0,
        "max": 10
      },
      "levels": [
        0,
        12,
        12.5,
        100
      ]
    },
    "freeSugar": {
      "target": {
        "min": 0,
        "max": 10
      },
      "levels": [
        0,
        10,
        100
      ]
    },
    "vitaminA": {
      "target": {
        "min": 400,
        "max": 400
      },
      "levels": [
        100,
        90,
        75,
        50,
        0
      ]
    },
    "vitaminB2": {
      "target": {
        "min": 0.4,
        "max": 0.4
      },
      "levels": [
        100,
        90,
        75,
        50,
        0
      ]
    },
    "vitaminB12": {
      "target": {
        "min": 1.4,
        "max": 1.4
      },
      "levels": [
        100,
        90,
        75,
        50,
        0
      ]
    },
    "vitaminC": {
      "target": {
        "min": 20,
        "max": 20
      },
      "levels": [
        100,
        90,
        75,
        50,
        0
      ]
    },
    "calcium": {
      "target": {
        "min": 330,
        "max": 330
      },
      "levels": [
        100,
        90,
        75,
        50,
        0
      ]
    },
    "folate": {
      "target": {
        "min": 80,
        "max": 80
      },
      "levels": [
        100,
        90,
        75,
        50,
        0
      ]
    },
    "iodine": {
      "target": {
        "min": 80,
        "max": 80
      },
      "levels": [
        100,
        90,
        75,
        50,
        0
      ]
    },
    "iron": {
      "target": {
        "min": 8,
        "max": 8
      },
      "levels": [
        100,
        90,
        75,
        50,
        0
      ]
    },
    "magnesium": {
      "target": {
        "min": 80,
        "max": 80
      },
      "levels": [
        100,
        90,
        75,
        50,
        0
      ]
    },
    "zinc": {
      "target": {
        "min": 2.5,
        "max": 2.5
      },
      "levels": [
        100,
        90,
        75,
        50,
        0
      ]
    },
    "omega3": {
      "target": {
        "min": 0.5,
        "max": 0.5
      },
      "levels": [
        100,
        90,
        75,
        50,
        0
      ]
    },
    "omega6": {
      "target": {
        "min": 3.5,
        "max": 3.5
      },
      "levels": [
        100,
        90,
        75,
        50,
        0
      ]
    },
    "epaDha": {
      "target": {
        "min": 0,
        "max": 0
      },
      "levels": null
    },
    "dha": {
      "target": {
        "min": 100,
        "max": 100
      },
      "levels": [
        100,
        99,
        0
      ]
    }
  },
  {
    "gender": "m",
    "ageInMonths": "8",
    "pal": "1.4",
    "factor": 1,
    "energy": "860-1032",
    "protein": {
      "target": {
        "min": 11,
        "max": 11
      },
      "levels": [
        100,
        99.9,
        80,
        0
      ]
    },
    "totalFat": {
      "target": {
        "min": 35,
        "max": 45
      },
      "levels": [
        0,
        45,
        50,
        100
      ]
    },
    "saturatedFat": {
      "target": {
        "min": 0,
        "max": 10
      },
      "levels": [
        0,
        12,
        12.5,
        100
      ]
    },
    "freeSugar": {
      "target": {
        "min": 0,
        "max": 10
      },
      "levels": [
        0,
        10,
        100
      ]
    },
    "vitaminA": {
      "target": {
        "min": 400,
        "max": 400
      },
      "levels": [
        100,
        90,
        75,
        50,
        0
      ]
    },
    "vitaminB2": {
      "target": {
        "min": 0.4,
        "max": 0.4
      },
      "levels": [
        100,
        90,
        75,
        50,
        0
      ]
    },
    "vitaminB12": {
      "target": {
        "min": 1.4,
        "max": 1.4
      },
      "levels": [
        100,
        90,
        75,
        50,
        0
      ]
    },
    "vitaminC": {
      "target": {
        "min": 20,
        "max": 20
      },
      "levels": [
        100,
        90,
        75,
        50,
        0
      ]
    },
    "calcium": {
      "target": {
        "min": 330,
        "max": 330
      },
      "levels": [
        100,
        90,
        75,
        50,
        0
      ]
    },
    "folate": {
      "target": {
        "min": 80,
        "max": 80
      },
      "levels": [
        100,
        90,
        75,
        50,
        0
      ]
    },
    "iodine": {
      "target": {
        "min": 80,
        "max": 80
      },
      "levels": [
        100,
        90,
        75,
        50,
        0
      ]
    },
    "iron": {
      "target": {
        "min": 8,
        "max": 8
      },
      "levels": [
        100,
        90,
        75,
        50,
        0
      ]
    },
    "magnesium": {
      "target": {
        "min": 80,
        "max": 80
      },
      "levels": [
        100,
        90,
        75,
        50,
        0
      ]
    },
    "zinc": {
      "target": {
        "min": 2.5,
        "max": 2.5
      },
      "levels": [
        100,
        90,
        75,
        50,
        0
      ]
    },
    "omega3": {
      "target": {
        "min": 0.5,
        "max": 0.5
      },
      "levels": [
        100,
        90,
        75,
        50,
        0
      ]
    },
    "omega6": {
      "target": {
        "min": 3.5,
        "max": 3.5
      },
      "levels": [
        100,
        90,
        75,
        50,
        0
      ]
    },
    "epaDha": {
      "target": {
        "min": 0,
        "max": 0
      },
      "levels": null
    },
    "dha": {
      "target": {
        "min": 100,
        "max": 100
      },
      "levels": [
        100,
        99,
        0
      ]
    }
  },
  {
    "gender": "m",
    "ageInMonths": "9",
    "pal": "1.4",
    "factor": 1,
    "energy": "890-1068",
    "protein": {
      "target": {
        "min": 11,
        "max": 11
      },
      "levels": [
        100,
        99.9,
        80,
        0
      ]
    },
    "totalFat": {
      "target": {
        "min": 35,
        "max": 45
      },
      "levels": [
        0,
        45,
        50,
        100
      ]
    },
    "saturatedFat": {
      "target": {
        "min": 0,
        "max": 10
      },
      "levels": [
        0,
        12,
        12.5,
        100
      ]
    },
    "freeSugar": {
      "target": {
        "min": 0,
        "max": 10
      },
      "levels": [
        0,
        10,
        100
      ]
    },
    "vitaminA": {
      "target": {
        "min": 400,
        "max": 400
      },
      "levels": [
        100,
        90,
        75,
        50,
        0
      ]
    },
    "vitaminB2": {
      "target": {
        "min": 0.4,
        "max": 0.4
      },
      "levels": [
        100,
        90,
        75,
        50,
        0
      ]
    },
    "vitaminB12": {
      "target": {
        "min": 1.4,
        "max": 1.4
      },
      "levels": [
        100,
        90,
        75,
        50,
        0
      ]
    },
    "vitaminC": {
      "target": {
        "min": 20,
        "max": 20
      },
      "levels": [
        100,
        90,
        75,
        50,
        0
      ]
    },
    "calcium": {
      "target": {
        "min": 330,
        "max": 330
      },
      "levels": [
        100,
        90,
        75,
        50,
        0
      ]
    },
    "folate": {
      "target": {
        "min": 80,
        "max": 80
      },
      "levels": [
        100,
        90,
        75,
        50,
        0
      ]
    },
    "iodine": {
      "target": {
        "min": 80,
        "max": 80
      },
      "levels": [
        100,
        90,
        75,
        50,
        0
      ]
    },
    "iron": {
      "target": {
        "min": 8,
        "max": 8
      },
      "levels": [
        100,
        90,
        75,
        50,
        0
      ]
    },
    "magnesium": {
      "target": {
        "min": 80,
        "max": 80
      },
      "levels": [
        100,
        90,
        75,
        50,
        0
      ]
    },
    "zinc": {
      "target": {
        "min": 2.5,
        "max": 2.5
      },
      "levels": [
        100,
        90,
        75,
        50,
        0
      ]
    },
    "omega3": {
      "target": {
        "min": 0.5,
        "max": 0.5
      },
      "levels": [
        100,
        90,
        75,
        50,
        0
      ]
    },
    "omega6": {
      "target": {
        "min": 3.5,
        "max": 3.5
      },
      "levels": [
        100,
        90,
        75,
        50,
        0
      ]
    },
    "epaDha": {
      "target": {
        "min": 0,
        "max": 0
      },
      "levels": null
    },
    "dha": {
      "target": {
        "min": 100,
        "max": 100
      },
      "levels": [
        100,
        99,
        0
      ]
    }
  },
  {
    "gender": "m",
    "ageInMonths": "10",
    "pal": "1.4",
    "factor": 1,
    "energy": "920-1104",
    "protein": {
      "target": {
        "min": 11,
        "max": 11
      },
      "levels": [
        100,
        99.9,
        80,
        0
      ]
    },
    "totalFat": {
      "target": {
        "min": 35,
        "max": 45
      },
      "levels": [
        0,
        45,
        50,
        100
      ]
    },
    "saturatedFat": {
      "target": {
        "min": 0,
        "max": 10
      },
      "levels": [
        0,
        12,
        12.5,
        100
      ]
    },
    "freeSugar": {
      "target": {
        "min": 0,
        "max": 10
      },
      "levels": [
        0,
        10,
        100
      ]
    },
    "vitaminA": {
      "target": {
        "min": 400,
        "max": 400
      },
      "levels": [
        100,
        90,
        75,
        50,
        0
      ]
    },
    "vitaminB2": {
      "target": {
        "min": 0.4,
        "max": 0.4
      },
      "levels": [
        100,
        90,
        75,
        50,
        0
      ]
    },
    "vitaminB12": {
      "target": {
        "min": 1.4,
        "max": 1.4
      },
      "levels": [
        100,
        90,
        75,
        50,
        0
      ]
    },
    "vitaminC": {
      "target": {
        "min": 20,
        "max": 20
      },
      "levels": [
        100,
        90,
        75,
        50,
        0
      ]
    },
    "calcium": {
      "target": {
        "min": 330,
        "max": 330
      },
      "levels": [
        100,
        90,
        75,
        50,
        0
      ]
    },
    "folate": {
      "target": {
        "min": 80,
        "max": 80
      },
      "levels": [
        100,
        90,
        75,
        50,
        0
      ]
    },
    "iodine": {
      "target": {
        "min": 80,
        "max": 80
      },
      "levels": [
        100,
        90,
        75,
        50,
        0
      ]
    },
    "iron": {
      "target": {
        "min": 8,
        "max": 8
      },
      "levels": [
        100,
        90,
        75,
        50,
        0
      ]
    },
    "magnesium": {
      "target": {
        "min": 80,
        "max": 80
      },
      "levels": [
        100,
        90,
        75,
        50,
        0
      ]
    },
    "zinc": {
      "target": {
        "min": 2.5,
        "max": 2.5
      },
      "levels": [
        100,
        90,
        75,
        50,
        0
      ]
    },
    "omega3": {
      "target": {
        "min": 0.5,
        "max": 0.5
      },
      "levels": [
        100,
        90,
        75,
        50,
        0
      ]
    },
    "omega6": {
      "target": {
        "min": 3.5,
        "max": 3.5
      },
      "levels": [
        100,
        90,
        75,
        50,
        0
      ]
    },
    "epaDha": {
      "target": {
        "min": 0,
        "max": 0
      },
      "levels": null
    },
    "dha": {
      "target": {
        "min": 100,
        "max": 100
      },
      "levels": [
        100,
        99,
        0
      ]
    }
  },
  {
    "gender": "m",
    "ageInMonths": "11",
    "pal": "1.4",
    "factor": 1,
    "energy": "940-1128",
    "protein": {
      "target": {
        "min": 11,
        "max": 11
      },
      "levels": [
        100,
        99.9,
        80,
        0
      ]
    },
    "totalFat": {
      "target": {
        "min": 35,
        "max": 45
      },
      "levels": [
        0,
        45,
        50,
        100
      ]
    },
    "saturatedFat": {
      "target": {
        "min": 0,
        "max": 10
      },
      "levels": [
        0,
        12,
        12.5,
        100
      ]
    },
    "freeSugar": {
      "target": {
        "min": 0,
        "max": 10
      },
      "levels": [
        0,
        10,
        100
      ]
    },
    "vitaminA": {
      "target": {
        "min": 400,
        "max": 400
      },
      "levels": [
        100,
        90,
        75,
        50,
        0
      ]
    },
    "vitaminB2": {
      "target": {
        "min": 0.4,
        "max": 0.4
      },
      "levels": [
        100,
        90,
        75,
        50,
        0
      ]
    },
    "vitaminB12": {
      "target": {
        "min": 1.4,
        "max": 1.4
      },
      "levels": [
        100,
        90,
        75,
        50,
        0
      ]
    },
    "vitaminC": {
      "target": {
        "min": 20,
        "max": 20
      },
      "levels": [
        100,
        90,
        75,
        50,
        0
      ]
    },
    "calcium": {
      "target": {
        "min": 330,
        "max": 330
      },
      "levels": [
        100,
        90,
        75,
        50,
        0
      ]
    },
    "folate": {
      "target": {
        "min": 80,
        "max": 80
      },
      "levels": [
        100,
        90,
        75,
        50,
        0
      ]
    },
    "iodine": {
      "target": {
        "min": 80,
        "max": 80
      },
      "levels": [
        100,
        90,
        75,
        50,
        0
      ]
    },
    "iron": {
      "target": {
        "min": 8,
        "max": 8
      },
      "levels": [
        100,
        90,
        75,
        50,
        0
      ]
    },
    "magnesium": {
      "target": {
        "min": 80,
        "max": 80
      },
      "levels": [
        100,
        90,
        75,
        50,
        0
      ]
    },
    "zinc": {
      "target": {
        "min": 2.5,
        "max": 2.5
      },
      "levels": [
        100,
        90,
        75,
        50,
        0
      ]
    },
    "omega3": {
      "target": {
        "min": 0.5,
        "max": 0.5
      },
      "levels": [
        100,
        90,
        75,
        50,
        0
      ]
    },
    "omega6": {
      "target": {
        "min": 3.5,
        "max": 3.5
      },
      "levels": [
        100,
        90,
        75,
        50,
        0
      ]
    },
    "epaDha": {
      "target": {
        "min": 0,
        "max": 0
      },
      "levels": null
    },
    "dha": {
      "target": {
        "min": 100,
        "max": 100
      },
      "levels": [
        100,
        99,
        0
      ]
    }
  }
]