[
  {
    "key": "R080600019",
    "portion": 76.75,
    "energy": 160.874,
    "nutrients": {
      "protein": 2.889,
      "totalFat": 22.042,
      "saturatedFat": 9.639764,
      "freeSugar": 0,
      "vitaminA": 0.027,
      "vitaminB2": 0.051,
      "vitaminB12": 0.079,
      "vitaminC": 3.671,
      "calcium": 37.792,
      "folate": 9.625,
      "iodine": 4.034,
      "iron": 0.423,
      "magnesium": 6.675,
      "zinc": 0.285,
      "omega3": 0.3393979,
      "omega6": 1.796979,
      "epa": 0,
      "dha": 0,
      "epaDha": 0
    }
  },
  {
    "key": "R080600020",
    "portion": 86.9,
    "energy": 173.113,
    "nutrients": {
      "protein": 1.821,
      "totalFat": 22.413,
      "saturatedFat": 2.192822,
      "freeSugar": 0,
      "vitaminA": 0.025,
      "vitaminB2": 0.008,
      "vitaminB12": 0,
      "vitaminC": 4.408,
      "calcium": 17.675,
      "folate": 4.624,
      "iodine": 5.727,
      "iron": 0.335,
      "magnesium": 6.221,
      "zinc": 0.128,
      "omega3": 1.9096712,
      "omega6": 3.712853,
      "epa": 0,
      "dha": 0.717,
      "epaDha": 0.717
    }
  },
  {
    "key": "R080H00043",
    "portion": 182.5,
    "energy": 68.099,
    "nutrients": {
      "protein": 0.695,
      "totalFat": 2.815,
      "saturatedFat": 0.71025395,
      "freeSugar": 0,
      "vitaminA": 0.006,
      "vitaminB2": 0.027,
      "vitaminB12": 0,
      "vitaminC": 15.199,
      "calcium": 19.325,
      "folate": 15.675,
      "iodine": 1.72,
      "iron": 0.36,
      "magnesium": 13.6,
      "zinc": 0.079,
      "omega3": 0.41035846,
      "omega6": 0.60892963,
      "epa": 0,
      "dha": 1.25,
      "epaDha": 1.25
    }
  },
  {
    "key": "R080H00048",
    "portion": 200,
    "energy": 38.789,
    "nutrients": {
      "protein": 0.357,
      "totalFat": 4.404,
      "saturatedFat": 0.9812304,
      "freeSugar": 0,
      "vitaminA": 0,
      "vitaminB2": 0.006,
      "vitaminB12": 0,
      "vitaminC": 16.213,
      "calcium": 37.721,
      "folate": 1.597,
      "iodine": 1.1,
      "iron": 0.192,
      "magnesium": 12.892,
      "zinc": 0.114,
      "omega3": 0.6856557,
      "omega6": 1.6307381,
      "epa": 0,
      "dha": 0,
      "epaDha": 0
    }
  },
  {
    "key": "R080O00029",
    "portion": 69.2,
    "energy": 102.61,
    "nutrients": {
      "protein": 3.457,
      "totalFat": 30.04,
      "saturatedFat": 4.6616616,
      "freeSugar": 0,
      "vitaminA": 0.029,
      "vitaminB2": 0.048,
      "vitaminB12": 0.083,
      "vitaminC": 0.788,
      "calcium": 15.163,
      "folate": 17.216,
      "iodine": 3.805,
      "iron": 0.952,
      "magnesium": 29.542,
      "zinc": 0.799,
      "omega3": 1.7031937,
      "omega6": 6.5887437,
      "epa": 0.44,
      "dha": 4.125,
      "epaDha": 4.565
    }
  },
  {
    "key": "R080O00037",
    "portion": 57.8,
    "energy": 197.622,
    "nutrients": {
      "protein": 5.044,
      "totalFat": 49.825,
      "saturatedFat": 32.497726,
      "freeSugar": 0,
      "vitaminA": 0.086,
      "vitaminB2": 0.043,
      "vitaminB12": 0.225,
      "vitaminC": 0.247,
      "calcium": 108.258,
      "folate": 5.561,
      "iodine": 11.373,
      "iron": 0.178,
      "magnesium": 8.873,
      "zinc": 0.608,
      "omega3": 0.41063848,
      "omega6": 1.2216733,
      "epa": 0,
      "dha": 0.625,
      "epaDha": 0.625
    }
  },
  {
    "key": "R080T00020",
    "portion": 160.125,
    "energy": 215.803,
    "nutrients": {
      "protein": 6.461,
      "totalFat": 33.579,
      "saturatedFat": 7.1586647,
      "freeSugar": 0,
      "vitaminA": 0.076,
      "vitaminB2": 0.157,
      "vitaminB12": 0.331,
      "vitaminC": 5.112,
      "calcium": 61.485,
      "folate": 27.075,
      "iodine": 6.409,
      "iron": 1.506,
      "magnesium": 47.495,
      "zinc": 1.413,
      "omega3": 1.9777412,
      "omega6": 5.330095,
      "epa": 0,
      "dha": 11.188,
      "epaDha": 11.188
    }
  },
  {
    "key": "R080U00024",
    "portion": 142.3,
    "energy": 116.785,
    "nutrients": {
      "protein": 0.721,
      "totalFat": 1.372,
      "saturatedFat": 0.45022002,
      "freeSugar": 0,
      "vitaminA": 0.005,
      "vitaminB2": 0.02,
      "vitaminB12": 0,
      "vitaminC": 14.725,
      "calcium": 17.526,
      "folate": 4.332,
      "iodine": 1.453,
      "iron": 0.686,
      "magnesium": 13.065,
      "zinc": 0.099,
      "omega3": 0.15418333,
      "omega6": 0.49329108,
      "epa": 0,
      "dha": 2.301,
      "epaDha": 2.301
    }
  },
  {
    "key": "R080U00027",
    "portion": 77.3,
    "energy": 191.95,
    "nutrients": {
      "protein": 6.914,
      "totalFat": 42.209,
      "saturatedFat": 5.798427,
      "freeSugar": 0,
      "vitaminA": 0.315,
      "vitaminB2": 0.105,
      "vitaminB12": 0.275,
      "vitaminC": 0.691,
      "calcium": 31.38,
      "folate": 21.796,
      "iodine": 2.83,
      "iron": 1.365,
      "magnesium": 47.632,
      "zinc": 1.162,
      "omega3": 0.18493253,
      "omega6": 9.072333,
      "epa": 0,
      "dha": 13.759,
      "epaDha": 13.759
    }
  },
  {
    "key": "R080U00031",
    "portion": 58.1,
    "energy": 248.463,
    "nutrients": {
      "protein": 5.705,
      "totalFat": 57.339,
      "saturatedFat": 20.027487,
      "freeSugar": 0,
      "vitaminA": 0.067,
      "vitaminB2": 0.101,
      "vitaminB12": 0.189,
      "vitaminC": 0.174,
      "calcium": 52.167,
      "folate": 18.313,
      "iodine": 1.981,
      "iron": 1.892,
      "magnesium": 50.863,
      "zinc": 1.094,
      "omega3": 0.17984569,
      "omega6": 4.650813,
      "epa": 0,
      "dha": 6.818,
      "epaDha": 6.818
    }
  },
  {
    "key": "R080U00033",
    "portion": 107.9,
    "energy": 251.022,
    "nutrients": {
      "protein": 5.029,
      "totalFat": 41.638,
      "saturatedFat": 23.814693,
      "freeSugar": 0,
      "vitaminA": 0.146,
      "vitaminB2": 0.123,
      "vitaminB12": 0.354,
      "vitaminC": 1.549,
      "calcium": 27.288,
      "folate": 28.258,
      "iodine": 3.082,
      "iron": 1.709,
      "magnesium": 28.934,
      "zinc": 1.177,
      "omega3": 0.3547446,
      "omega6": 2.2085283,
      "epa": 0,
      "dha": 18.268,
      "epaDha": 18.268
    }
  },
  {
    "key": "R080U00048",
    "portion": 101.3,
    "energy": 215.903,
    "nutrients": {
      "protein": 5.266,
      "totalFat": 50.328,
      "saturatedFat": 25.733437,
      "freeSugar": 0,
      "vitaminA": 0.15,
      "vitaminB2": 0.147,
      "vitaminB12": 0.392,
      "vitaminC": 5.773,
      "calcium": 50.53,
      "folate": 26.351,
      "iodine": 3.534,
      "iron": 1.233,
      "magnesium": 33.144,
      "zinc": 0.987,
      "omega3": 0.39821634,
      "omega6": 3.3691297,
      "epa": 0,
      "dha": 13.757,
      "epaDha": 13.757
    }
  },
  {
    "key": "R080U00049",
    "portion": 50,
    "energy": 153.459,
    "nutrients": {
      "protein": 2.954,
      "totalFat": 53.914,
      "saturatedFat": 36.3227,
      "freeSugar": 0,
      "vitaminA": 0.062,
      "vitaminB2": 0.06,
      "vitaminB12": 0.2,
      "vitaminC": 0.206,
      "calcium": 27,
      "folate": 4.5,
      "iodine": 3.9,
      "iron": 0.249,
      "magnesium": 5,
      "zinc": 0.279,
      "omega3": 0.255117,
      "omega6": 1.7271714,
      "epa": 0,
      "dha": 7,
      "epaDha": 7
    }
  },
  {
    "key": "R090000001",
    "portion": 15,
    "energy": 33.162,
    "nutrients": {
      "protein": 1.77,
      "totalFat": 45.57,
      "saturatedFat": 16.573965,
      "freeSugar": 0,
      "vitaminA": 0.001,
      "vitaminB2": 0.104,
      "vitaminB12": 0,
      "vitaminC": 0.118,
      "calcium": 11.1,
      "folate": 3.45,
      "iodine": 0.27,
      "iron": 0.653,
      "magnesium": 9.45,
      "zinc": 0.293,
      "omega3": 0.16283698,
      "omega6": 20.51746,
      "epa": 0,
      "dha": 0,
      "epaDha": 0
    }
  },
  {
    "key": "R090000002",
    "portion": 15,
    "energy": 81.829,
    "nutrients": {
      "protein": 0.99,
      "totalFat": 51.515,
      "saturatedFat": 18.1476,
      "freeSugar": 0,
      "vitaminA": 0,
      "vitaminB2": 0,
      "vitaminB12": 0,
      "vitaminC": 0,
      "calcium": 0,
      "folate": 0,
      "iodine": 0,
      "iron": 0,
      "magnesium": 0,
      "zinc": 0,
      "omega3": 0,
      "omega6": 0,
      "epa": 0,
      "dha": 0,
      "epaDha": 0
    }
  },
  {
    "key": "R090000003",
    "portion": 15,
    "energy": 42.598,
    "nutrients": {
      "protein": 0.019,
      "totalFat": 0.056,
      "saturatedFat": 0.022370487,
      "freeSugar": 0,
      "vitaminA": 0,
      "vitaminB2": 0,
      "vitaminB12": 0,
      "vitaminC": 0.606,
      "calcium": 0.3,
      "folate": 0.15,
      "iodine": 0.045,
      "iron": 0.042,
      "magnesium": 0.3,
      "zinc": 0.004,
      "omega3": 0.003169163,
      "omega6": 0.025353303,
      "epa": 0,
      "dha": 0.15,
      "epaDha": 0.15
    }
  },
  {
    "key": "R090000004",
    "portion": 3,
    "energy": 22.22,
    "nutrients": {
      "protein": 0.02,
      "totalFat": 99.27,
      "saturatedFat": 65.40234,
      "freeSugar": 0,
      "vitaminA": 0.02,
      "vitaminB2": 0.001,
      "vitaminB12": 0,
      "vitaminC": 0.006,
      "calcium": 0.39,
      "folate": 0,
      "iodine": 0.081,
      "iron": 0,
      "magnesium": 0.09,
      "zinc": 0.007,
      "omega3": 0.5139964,
      "omega6": 1.4812331,
      "epa": 0,
      "dha": 0.3,
      "epaDha": 0.3
    }
  },
  {
    "key": "R090000005",
    "portion": 3,
    "energy": 21.281,
    "nutrients": {
      "protein": 0.006,
      "totalFat": 99.663,
      "saturatedFat": 38.57141,
      "freeSugar": 0,
      "vitaminA": 0.018,
      "vitaminB2": 0.001,
      "vitaminB12": 0,
      "vitaminC": 0.003,
      "calcium": 0.24,
      "folate": 0.06,
      "iodine": 0.039,
      "iron": 0.002,
      "magnesium": 0.33,
      "zinc": 0.004,
      "omega3": 3.2987173,
      "omega6": 21.69541,
      "epa": 0,
      "dha": 0,
      "epaDha": 0
    }
  },
  {
    "key": "R090000006",
    "portion": 15,
    "energy": 29.916,
    "nutrients": {
      "protein": 1.461,
      "totalFat": 73.597,
      "saturatedFat": 49.789818,
      "freeSugar": 0,
      "vitaminA": 0.025,
      "vitaminB2": 0.048,
      "vitaminB12": 0.075,
      "vitaminC": 0,
      "calcium": 13.05,
      "folate": 2.55,
      "iodine": 2.7,
      "iron": 0.015,
      "magnesium": 0,
      "zinc": 0.077,
      "omega3": 0.29783395,
      "omega6": 1.2951263,
      "epa": 1.5,
      "dha": 0.3,
      "epaDha": 1.8
    }
  },
  {
    "key": "R090000007",
    "portion": 30,
    "energy": 85.053,
    "nutrients": {
      "protein": 6.3,
      "totalFat": 69.515,
      "saturatedFat": 43.775166,
      "freeSugar": 0,
      "vitaminA": 0.109,
      "vitaminB2": 0.18,
      "vitaminB12": 0.84,
      "vitaminC": 0,
      "calcium": 171,
      "folate": 13.2,
      "iodine": 1.05,
      "iron": 0.045,
      "magnesium": 5.1,
      "zinc": 0.93,
      "omega3": 0.54601246,
      "omega6": 1.104723,
      "epa": 0,
      "dha": 0,
      "epaDha": 0
    }
  },
  {
    "key": "R090000008",
    "portion": 15,
    "energy": 31.5,
    "nutrients": {
      "protein": 1.035,
      "totalFat": 51.635,
      "saturatedFat": 7.8233247,
      "freeSugar": 0,
      "vitaminA": 0.017,
      "vitaminB2": 0.013,
      "vitaminB12": 0,
      "vitaminC": 1.135,
      "calcium": 10.922,
      "folate": 1.469,
      "iodine": 2.471,
      "iron": 0.368,
      "magnesium": 6.726,
      "zinc": 0.177,
      "omega3": 2.6371715,
      "omega6": 9.007886,
      "epa": 0,
      "dha": 0,
      "epaDha": 0
    }
  },
  {
    "key": "R090100000",
    "portion": 80,
    "energy": 16.05,
    "nutrients": {
      "protein": 0.76,
      "totalFat": 9.25,
      "saturatedFat": 1.7098149,
      "freeSugar": 0,
      "vitaminA": 0.079,
      "vitaminB2": 0.028,
      "vitaminB12": 0,
      "vitaminC": 15.404,
      "calcium": 7.2,
      "folate": 26.4,
      "iodine": 0.88,
      "iron": 0.253,
      "magnesium": 8.8,
      "zinc": 0.068,
      "omega3": 0.40373832,
      "omega6": 4.2168226,
      "epa": 0,
      "dha": 0,
      "epaDha": 0
    }
  },
  {
    "key": "R090100001",
    "portion": 5,
    "energy": 0.705,
    "nutrients": {
      "protein": 0.03,
      "totalFat": 12.542,
      "saturatedFat": 4.2765956,
      "freeSugar": 0,
      "vitaminA": 0.003,
      "vitaminB2": 0.002,
      "vitaminB12": 0,
      "vitaminC": 0.4,
      "calcium": 0.8,
      "folate": 0.75,
      "iodine": 0.145,
      "iron": 0.011,
      "magnesium": 0.4,
      "zinc": 0.006,
      "omega3": 2.680851,
      "omega6": 2.93617,
      "epa": 0,
      "dha": 0,
      "epaDha": 0
    }
  },
  {
    "key": "R090100002",
    "portion": 100,
    "energy": 38.932,
    "nutrients": {
      "protein": 0.84,
      "totalFat": 4.086,
      "saturatedFat": 0.9246938,
      "freeSugar": 0,
      "vitaminA": 1.637,
      "vitaminB2": 0.014,
      "vitaminB12": 0,
      "vitaminC": 3.22,
      "calcium": 21,
      "folate": 17,
      "iodine": 3.1,
      "iron": 0.355,
      "magnesium": 12,
      "zinc": 0.256,
      "omega3": 0.27740675,
      "omega6": 2.427309,
      "epa": 0,
      "dha": 0,
      "epaDha": 0
    }
  },
  {
    "key": "R090100003",
    "portion": 125,
    "energy": 28.363,
    "nutrients": {
      "protein": 1.35,
      "totalFat": 9.347,
      "saturatedFat": 1.7452569,
      "freeSugar": 0,
      "vitaminA": 0.11,
      "vitaminB2": 0.054,
      "vitaminB12": 0,
      "vitaminC": 146.25,
      "calcium": 12.5,
      "folate": 68.75,
      "iodine": 1.25,
      "iron": 0.503,
      "magnesium": 13.75,
      "zinc": 0.178,
      "omega3": 0.9122801,
      "omega6": 4.3630786,
      "epa": 0,
      "dha": 0,
      "epaDha": 0
    }
  },
  {
    "key": "R090100004",
    "portion": 50,
    "energy": 7.643,
    "nutrients": {
      "protein": 0.5,
      "totalFat": 11.563,
      "saturatedFat": 1.8251995,
      "freeSugar": 0,
      "vitaminA": 0.3,
      "vitaminB2": 0.008,
      "vitaminB12": 0,
      "vitaminC": 2.15,
      "calcium": 9.5,
      "folate": 26.5,
      "iodine": 1,
      "iron": 0.25,
      "magnesium": 3.5,
      "zinc": 0.075,
      "omega3": 4.945702,
      "omega6": 2.0607092,
      "epa": 0,
      "dha": 0,
      "epaDha": 0
    }
  },
  {
    "key": "R090200000",
    "portion": 130,
    "energy": 77.314,
    "nutrients": {
      "protein": 0.407,
      "totalFat": 0.669,
      "saturatedFat": 0.27144265,
      "freeSugar": 0,
      "vitaminA": 0.007,
      "vitaminB2": 0.01,
      "vitaminB12": 0,
      "vitaminC": 14.352,
      "calcium": 6.5,
      "folate": 6.5,
      "iodine": 0.91,
      "iron": 0.296,
      "magnesium": 6.5,
      "zinc": 0.046,
      "omega3": 0.060532376,
      "omega6": 0.27239567,
      "epa": 0,
      "dha": 2.6,
      "epaDha": 2.6
    }
  },
  {
    "key": "R090200001",
    "portion": 160,
    "energy": 85.602,
    "nutrients": {
      "protein": 0.699,
      "totalFat": 4.46,
      "saturatedFat": 0.6063064,
      "freeSugar": 0,
      "vitaminA": 0.005,
      "vitaminB2": 0.056,
      "vitaminB12": 0,
      "vitaminC": 6.845,
      "calcium": 14.4,
      "folate": 20.8,
      "iodine": 1.12,
      "iron": 0.245,
      "magnesium": 11.2,
      "zinc": 0.157,
      "omega3": 0.28597462,
      "omega6": 1.7158477,
      "epa": 0,
      "dha": 0,
      "epaDha": 0
    }
  },
  {
    "key": "R090200002",
    "portion": 100,
    "energy": 72.37,
    "nutrients": {
      "protein": 0.68,
      "totalFat": 3.419,
      "saturatedFat": 0.78347963,
      "freeSugar": 0,
      "vitaminA": 0.006,
      "vitaminB2": 0.025,
      "vitaminB12": 0,
      "vitaminC": 4.2,
      "calcium": 12,
      "folate": 43,
      "iodine": 1,
      "iron": 0.38,
      "magnesium": 7,
      "zinc": 0.048,
      "omega3": 0.43526322,
      "omega6": 1.3430979,
      "epa": 0,
      "dha": 0,
      "epaDha": 0
    }
  },
  {
    "key": "R090200003",
    "portion": 100,
    "energy": 36.066,
    "nutrients": {
      "protein": 0.82,
      "totalFat": 9.801,
      "saturatedFat": 0.77355534,
      "freeSugar": 0,
      "vitaminA": 0.003,
      "vitaminB2": 0.054,
      "vitaminB12": 0,
      "vitaminC": 57,
      "calcium": 19,
      "folate": 44,
      "iodine": 2.8,
      "iron": 0.642,
      "magnesium": 13,
      "zinc": 0.098,
      "omega3": 2.5203793,
      "omega6": 3.2190983,
      "epa": 0,
      "dha": 0,
      "epaDha": 0
    }
  },
  {
    "key": "R090200004",
    "portion": 100,
    "energy": 93.389,
    "nutrients": {
      "protein": 1.15,
      "totalFat": 1.703,
      "saturatedFat": 0.54931235,
      "freeSugar": 0,
      "vitaminA": 0.005,
      "vitaminB2": 0.057,
      "vitaminB12": 0,
      "vitaminC": 11,
      "calcium": 7,
      "folate": 14,
      "iodine": 2,
      "iron": 0.352,
      "magnesium": 30,
      "zinc": 0.162,
      "omega3": 0.24092773,
      "omega6": 0.3372988,
      "epa": 0,
      "dha": 0,
      "epaDha": 0
    }
  },
  {
    "key": "R090200005",
    "portion": 40,
    "energy": 21.401,
    "nutrients": {
      "protein": 0.28,
      "totalFat": 4.955,
      "saturatedFat": 1.0429285,
      "freeSugar": 0,
      "vitaminA": 0.007,
      "vitaminB2": 0.012,
      "vitaminB12": 0,
      "vitaminC": 12,
      "calcium": 13.2,
      "folate": 2.8,
      "iodine": 0.32,
      "iron": 0.12,
      "magnesium": 4.4,
      "zinc": 0.02,
      "omega3": 0.6055792,
      "omega6": 1.463483,
      "epa": 0,
      "dha": 0,
      "epaDha": 0
    }
  },
  {
    "key": "R090200006",
    "portion": 200,
    "energy": 94.583,
    "nutrients": {
      "protein": 2,
      "totalFat": 3.737,
      "saturatedFat": 0.53286344,
      "freeSugar": 0,
      "vitaminA": 0.018,
      "vitaminB2": 0.084,
      "vitaminB12": 0,
      "vitaminC": 90.96,
      "calcium": 80,
      "folate": 44,
      "iodine": 1.6,
      "iron": 0.372,
      "magnesium": 24,
      "zinc": 0.126,
      "omega3": 0.4757726,
      "omega6": 0.9515452,
      "epa": 0,
      "dha": 0,
      "epaDha": 0
    }
  },
  {
    "key": "R090200007",
    "portion": 125,
    "energy": 60.01,
    "nutrients": {
      "protein": 0.75,
      "totalFat": 3.129,
      "saturatedFat": 0.41244027,
      "freeSugar": 0,
      "vitaminA": 0.076,
      "vitaminB2": 0.054,
      "vitaminB12": 0,
      "vitaminC": 6.75,
      "calcium": 10,
      "folate": 2.5,
      "iodine": 1.75,
      "iron": 0.32,
      "magnesium": 8.75,
      "zinc": 0.104,
      "omega3": 0.58115315,
      "omega6": 0.88110316,
      "epa": 0,
      "dha": 0,
      "epaDha": 0
    }
  },
  {
    "key": "R090200008",
    "portion": 125,
    "energy": 94.941,
    "nutrients": {
      "protein": 0.8,
      "totalFat": 3.491,
      "saturatedFat": 0.7340531,
      "freeSugar": 0,
      "vitaminA": 0.334,
      "vitaminB2": 0.038,
      "vitaminB12": 0,
      "vitaminC": 20,
      "calcium": 10,
      "folate": 10,
      "iodine": 2.25,
      "iron": 0.463,
      "magnesium": 10,
      "zinc": 0.048,
      "omega3": 0.27253768,
      "omega6": 0.73466676,
      "epa": 0,
      "dha": 0,
      "epaDha": 0
    }
  },
  {
    "key": "R090300000",
    "portion": 200,
    "energy": 129.932,
    "nutrients": {
      "protein": 6.764,
      "totalFat": 48.549,
      "saturatedFat": 33.261925,
      "freeSugar": 0,
      "vitaminA": 0.062,
      "vitaminB2": 0.36,
      "vitaminB12": 0.8,
      "vitaminC": 3.4,
      "calcium": 240,
      "folate": 18,
      "iodine": 23.4,
      "iron": 0.12,
      "magnesium": 24,
      "zinc": 0.8,
      "omega3": 0.346335,
      "omega6": 0.6372564,
      "epa": 0,
      "dha": 0,
      "epaDha": 0
    }
  },
  {
    "key": "R090300001",
    "portion": 200,
    "energy": 87.609,
    "nutrients": {
      "protein": 0.6,
      "totalFat": 26.227,
      "saturatedFat": 2.0545013,
      "freeSugar": 0,
      "vitaminA": 0,
      "vitaminB2": 0.42,
      "vitaminB12": 0,
      "vitaminC": 0,
      "calcium": 240,
      "folate": 18,
      "iodine": 40,
      "iron": 0.02,
      "magnesium": 8,
      "zinc": 0.736,
      "omega3": 0.6636304,
      "omega6": 7.5403214,
      "epa": 0,
      "dha": 0,
      "epaDha": 0
    }
  },
  {
    "key": "R090300003",
    "portion": 200,
    "energy": 96.016,
    "nutrients": {
      "protein": 0.34,
      "totalFat": 0.589,
      "saturatedFat": 0.056243252,
      "freeSugar": 0,
      "vitaminA": 0,
      "vitaminB2": 0.002,
      "vitaminB12": 0,
      "vitaminC": 12.73,
      "calcium": 38,
      "folate": 2,
      "iodine": 3.8,
      "iron": 0.836,
      "magnesium": 4,
      "zinc": 0.106,
      "omega3": 0.0749875,
      "omega6": 0.18746875,
      "epa": 0,
      "dha": 0,
      "epaDha": 0
    }
  },
  {
    "key": "R090300004",
    "portion": 200,
    "energy": 66.399,
    "nutrients": {
      "protein": 0.366,
      "totalFat": 0.639,
      "saturatedFat": 0.29819673,
      "freeSugar": 0,
      "vitaminA": 0.006,
      "vitaminB2": 0.008,
      "vitaminB12": 0,
      "vitaminC": 8.638,
      "calcium": 16,
      "folate": 4,
      "iodine": 1.6,
      "iron": 0.284,
      "magnesium": 8,
      "zinc": 0.056,
      "omega3": 0.054217685,
      "omega6": 0.21687074,
      "epa": 0,
      "dha": 2,
      "epaDha": 2
    }
  },
  {
    "key": "R090300005",
    "portion": 200,
    "energy": 83.357,
    "nutrients": {
      "protein": 6,
      "totalFat": 38.166,
      "saturatedFat": 6.4782896,
      "freeSugar": 0,
      "vitaminA": 0.008,
      "vitaminB2": 0.42,
      "vitaminB12": 0.76,
      "vitaminC": 0,
      "calcium": 240,
      "folate": 54,
      "iodine": 1.2,
      "iron": 1.6,
      "magnesium": 26,
      "zinc": 1.2,
      "omega3": 3.0231414,
      "omega6": 20.514174,
      "epa": 0,
      "dha": 0,
      "epaDha": 0
    }
  },
  {
    "key": "R090400000",
    "portion": 25,
    "energy": 107.16,
    "nutrients": {
      "protein": 2.289,
      "totalFat": 36.189,
      "saturatedFat": 14.945636,
      "freeSugar": 0,
      "vitaminA": 0.011,
      "vitaminB2": 0.016,
      "vitaminB12": 0,
      "vitaminC": 0.184,
      "calcium": 9.652,
      "folate": 8.701,
      "iodine": 0.356,
      "iron": 0.64,
      "magnesium": 22.139,
      "zinc": 0.437,
      "omega3": 0.10540313,
      "omega6": 6.29743,
      "epa": 0.26,
      "dha": 0.148,
      "epaDha": 0.408
    }
  },
  {
    "key": "R090400001",
    "portion": 25,
    "energy": 80.073,
    "nutrients": {
      "protein": 1.197,
      "totalFat": 33.67,
      "saturatedFat": 10.359229,
      "freeSugar": 0,
      "vitaminA": 0.004,
      "vitaminB2": 0.038,
      "vitaminB12": 0.025,
      "vitaminC": 8.762,
      "calcium": 26.25,
      "folate": 4,
      "iodine": 0.9,
      "iron": 0.248,
      "magnesium": 12.75,
      "zinc": 0.16,
      "omega3": 0.29223335,
      "omega6": 3.5011802,
      "epa": 0,
      "dha": 0.25,
      "epaDha": 0.25
    }
  },
  {
    "key": "R090400002",
    "portion": 25,
    "energy": 149.697,
    "nutrients": {
      "protein": 7.444,
      "totalFat": 70.989,
      "saturatedFat": 13.649056,
      "freeSugar": 0,
      "vitaminA": 0,
      "vitaminB2": 0.039,
      "vitaminB12": 0,
      "vitaminC": 0,
      "calcium": 10.25,
      "folate": 42.25,
      "iodine": 3.25,
      "iron": 0.453,
      "magnesium": 40,
      "zinc": 0.707,
      "omega3": 0.79360306,
      "omega6": 20.796007,
      "epa": 0,
      "dha": 0,
      "epaDha": 0
    }
  },
  {
    "key": "R090400003",
    "portion": 25,
    "energy": 180.687,
    "nutrients": {
      "protein": 4.018,
      "totalFat": 86.325,
      "saturatedFat": 8.114001,
      "freeSugar": 0,
      "vitaminA": 0.001,
      "vitaminB2": 0.033,
      "vitaminB12": 0,
      "vitaminC": 0,
      "calcium": 21.75,
      "folate": 18.25,
      "iodine": 0.75,
      "iron": 0.695,
      "magnesium": 35,
      "zinc": 0.66,
      "omega3": 12.527188,
      "omega6": 51.75248,
      "epa": 0,
      "dha": 0,
      "epaDha": 0
    }
  },
  {
    "key": "R090400004",
    "portion": 25,
    "energy": 166.058,
    "nutrients": {
      "protein": 4.063,
      "totalFat": 84.218,
      "saturatedFat": 7.257707,
      "freeSugar": 0,
      "vitaminA": 0.001,
      "vitaminB2": 0.038,
      "vitaminB12": 0,
      "vitaminC": 0,
      "calcium": 37.25,
      "folate": 22.5,
      "iodine": 0.25,
      "iron": 0.858,
      "magnesium": 40.75,
      "zinc": 0.52,
      "omega3": 0.078587,
      "omega6": 8.62831,
      "epa": 0,
      "dha": 0,
      "epaDha": 0
    }
  },
  {
    "key": "R090400005",
    "portion": 25,
    "energy": 149.398,
    "nutrients": {
      "protein": 5.253,
      "totalFat": 69.652,
      "saturatedFat": 14.05877,
      "freeSugar": 0,
      "vitaminA": 0,
      "vitaminB2": 0.045,
      "vitaminB12": 0,
      "vitaminC": 0,
      "calcium": 9.5,
      "folate": 17,
      "iodine": 1.25,
      "iron": 1.603,
      "magnesium": 64.5,
      "zinc": 1.288,
      "omega3": 0.121989585,
      "omega6": 12.976077,
      "epa": 0,
      "dha": 0,
      "epaDha": 0
    }
  },
  {
    "key": "R090400006",
    "portion": 25,
    "energy": 174.178,
    "nutrients": {
      "protein": 4.24,
      "totalFat": 86.38,
      "saturatedFat": 21.5338,
      "freeSugar": 0,
      "vitaminA": 0.002,
      "vitaminB2": 0.015,
      "vitaminB12": 0,
      "vitaminC": 0,
      "calcium": 40.25,
      "folate": 7.75,
      "iodine": 1.25,
      "iron": 0.71,
      "magnesium": 94.75,
      "zinc": 0.968,
      "omega3": 0.078798704,
      "omega6": 37.03539,
      "epa": 3.5,
      "dha": 0,
      "epaDha": 3.5
    }
  },
  {
    "key": "R090400007",
    "portion": 95,
    "energy": 275.461,
    "nutrients": {
      "protein": 4.842,
      "totalFat": 41.252,
      "saturatedFat": 24.08296,
      "freeSugar": 0,
      "vitaminA": 0.152,
      "vitaminB2": 0.125,
      "vitaminB12": 0.475,
      "vitaminC": 0.609,
      "calcium": 56.05,
      "folate": 15.2,
      "iodine": 6.745,
      "iron": 0.616,
      "magnesium": 9.5,
      "zinc": 0.541,
      "omega3": 0.26383045,
      "omega6": 1.7940471,
      "epa": 0,
      "dha": 15.2,
      "epaDha": 15.2
    }
  },
  {
    "key": "R090400008",
    "portion": 22,
    "energy": 108.35,
    "nutrients": {
      "protein": 1.495,
      "totalFat": 52.547,
      "saturatedFat": 25.64169,
      "freeSugar": 0,
      "vitaminA": 0.033,
      "vitaminB2": 0.023,
      "vitaminB12": 0.066,
      "vitaminC": 0.014,
      "calcium": 17.16,
      "folate": 2.2,
      "iodine": 0.858,
      "iron": 0.216,
      "magnesium": 8.14,
      "zinc": 0.198,
      "omega3": 0.17360406,
      "omega6": 2.4779696,
      "epa": 0,
      "dha": 1.54,
      "epaDha": 1.54
    }
  },
  {
    "key": "R090400009",
    "portion": 150,
    "energy": 152.851,
    "nutrients": {
      "protein": 6.15,
      "totalFat": 24.283,
      "saturatedFat": 15.899748,
      "freeSugar": 0,
      "vitaminA": 0.041,
      "vitaminB2": 0.225,
      "vitaminB12": 0.45,
      "vitaminC": 2.325,
      "calcium": 190.5,
      "folate": 13.5,
      "iodine": 4.5,
      "iron": 0.135,
      "magnesium": 16.5,
      "zinc": 0.567,
      "omega3": 0.3797816,
      "omega6": 0.5829206,
      "epa": 0,
      "dha": 0,
      "epaDha": 0
    }
  },
  {
    "key": "R090400010",
    "portion": 150,
    "energy": 103.54,
    "nutrients": {
      "protein": 5.82,
      "totalFat": 48.023,
      "saturatedFat": 29.505823,
      "freeSugar": 0,
      "vitaminA": 0.048,
      "vitaminB2": 0.27,
      "vitaminB12": 0.6,
      "vitaminC": 1.5,
      "calcium": 180,
      "folate": 15,
      "iodine": 5.25,
      "iron": 0.069,
      "magnesium": 18,
      "zinc": 0.675,
      "omega3": 0.7823064,
      "omega6": 1.1734595,
      "epa": 0,
      "dha": 0,
      "epaDha": 0
    }
  },
  {
    "key": "R090400011",
    "portion": 150,
    "energy": 83.763,
    "nutrients": {
      "protein": 7.05,
      "totalFat": 42.729,
      "saturatedFat": 8.0586605,
      "freeSugar": 0,
      "vitaminA": 0,
      "vitaminB2": 0.315,
      "vitaminB12": 0,
      "vitaminC": 0,
      "calcium": 180,
      "folate": 0,
      "iodine": 0,
      "iron": 0.6,
      "magnesium": 87,
      "zinc": 0,
      "omega3": 2.9010422,
      "omega6": 23.369507,
      "epa": 0,
      "dha": 0,
      "epaDha": 0
    }
  },
  {
    "key": "R090400012",
    "portion": 18,
    "energy": 85.528,
    "nutrients": {
      "protein": 1.67,
      "totalFat": 40.545,
      "saturatedFat": 20.265963,
      "freeSugar": 0,
      "vitaminA": 0.016,
      "vitaminB2": 0.033,
      "vitaminB12": 0.028,
      "vitaminC": 0.09,
      "calcium": 20.34,
      "folate": 4.5,
      "iodine": 1.22,
      "iron": 0.266,
      "magnesium": 10.08,
      "zinc": 0.252,
      "omega3": 0.32389393,
      "omega6": 3.90188,
      "epa": 0,
      "dha": 0,
      "epaDha": 0
    }
  },
  {
    "key": "R090400013",
    "portion": 20,
    "energy": 69.552,
    "nutrients": {
      "protein": 1.32,
      "totalFat": 0,
      "saturatedFat": 0,
      "freeSugar": 0,
      "vitaminA": 0,
      "vitaminB2": 0,
      "vitaminB12": 0,
      "vitaminC": 0,
      "calcium": 1.8,
      "folate": 0,
      "iodine": 0,
      "iron": 0.038,
      "magnesium": 0.4,
      "zinc": 0,
      "omega3": 0,
      "omega6": 0,
      "epa": 0,
      "dha": 0,
      "epaDha": 0
    }
  },
  {
    "key": "R090400014",
    "portion": 5,
    "energy": 22.034,
    "nutrients": {
      "protein": 0.407,
      "totalFat": 22.06,
      "saturatedFat": 13.954973,
      "freeSugar": 0,
      "vitaminA": 0.008,
      "vitaminB2": 0.009,
      "vitaminB12": 0,
      "vitaminC": 0.059,
      "calcium": 2.35,
      "folate": 0.45,
      "iodine": 0.195,
      "iron": 0.089,
      "magnesium": 1.15,
      "zinc": 0.057,
      "omega3": 0.13683398,
      "omega6": 0.66783154,
      "epa": 0,
      "dha": 0.05,
      "epaDha": 0.05
    }
  },
  {
    "key": "R090400015",
    "portion": 75,
    "energy": 106.227,
    "nutrients": {
      "protein": 1.125,
      "totalFat": 11.231,
      "saturatedFat": 6.721545,
      "freeSugar": 0,
      "vitaminA": 0.01,
      "vitaminB2": 0.05,
      "vitaminB12": 0,
      "vitaminC": 3.067,
      "calcium": 30.75,
      "folate": 2.25,
      "iodine": 1.5,
      "iron": 0.3,
      "magnesium": 4.5,
      "zinc": 0.121,
      "omega3": 0.082606114,
      "omega6": 0.27323562,
      "epa": 0,
      "dha": 0,
      "epaDha": 0
    }
  },
  {
    "key": "R090500000",
    "portion": 15,
    "energy": 41.523,
    "nutrients": {
      "protein": 0.36,
      "totalFat": 86.294,
      "saturatedFat": 60.062584,
      "freeSugar": 0,
      "vitaminA": 0.049,
      "vitaminB2": 0.03,
      "vitaminB12": 0,
      "vitaminC": 0,
      "calcium": 11.25,
      "folate": 1.05,
      "iodine": 1.5,
      "iron": 0.009,
      "magnesium": 0,
      "zinc": 0,
      "omega3": 0.4844303,
      "omega6": 1.3720107,
      "epa": 3.3,
      "dha": 0.45,
      "epaDha": 3.75
    }
  },
  {
    "key": "R090500001",
    "portion": 5,
    "energy": 13.71,
    "nutrients": {
      "protein": 0,
      "totalFat": 0.645,
      "saturatedFat": 0,
      "freeSugar": 0,
      "vitaminA": 0,
      "vitaminB2": 0.001,
      "vitaminB12": 0,
      "vitaminC": 0,
      "calcium": 3.35,
      "folate": 0,
      "iodine": 0,
      "iron": 0.06,
      "magnesium": 0.7,
      "zinc": 0.208,
      "omega3": 0,
      "omega6": 0,
      "epa": 0,
      "dha": 0,
      "epaDha": 0
    }
  },
  {
    "key": "R090500002",
    "portion": 5,
    "energy": 18.945,
    "nutrients": {
      "protein": 0.06,
      "totalFat": 0.233,
      "saturatedFat": 0,
      "freeSugar": 0,
      "vitaminA": 0,
      "vitaminB2": 0,
      "vitaminB12": 0,
      "vitaminC": 1.05,
      "calcium": 0.6,
      "folate": 0,
      "iodine": 0,
      "iron": 0.021,
      "magnesium": 0.7,
      "zinc": 0.003,
      "omega3": 0,
      "omega6": 0,
      "epa": 0,
      "dha": 0,
      "epaDha": 0
    }
  },
  {
    "key": "R090500003",
    "portion": 3,
    "energy": 26.512,
    "nutrients": {
      "protein": 0,
      "totalFat": 100,
      "saturatedFat": 9.32619,
      "freeSugar": 0,
      "vitaminA": 0.017,
      "vitaminB2": 0,
      "vitaminB12": 0,
      "vitaminC": 0,
      "calcium": 0,
      "folate": 0,
      "iodine": 0,
      "iron": 0.004,
      "magnesium": 0,
      "zinc": 0.001,
      "omega3": 8.742003,
      "omega6": 15.228236,
      "epa": 0,
      "dha": 0,
      "epaDha": 0
    }
  },
  {
    "key": "R090500004",
    "portion": 3,
    "energy": 26.512,
    "nutrients": {
      "protein": 0,
      "totalFat": 100,
      "saturatedFat": 10.1626835,
      "freeSugar": 0,
      "vitaminA": 0,
      "vitaminB2": 0,
      "vitaminB12": 0,
      "vitaminC": 0,
      "calcium": 0.03,
      "folate": 0,
      "iodine": 0,
      "iron": 0,
      "magnesium": 0.03,
      "zinc": 0,
      "omega3": 53.771877,
      "omega6": 14.563216,
      "epa": 0,
      "dha": 0,
      "epaDha": 0
    }
  },
  {
    "key": "R090500005",
    "portion": 60,
    "energy": 81.972,
    "nutrients": {
      "protein": 7.11,
      "totalFat": 60.287,
      "saturatedFat": 17.866451,
      "freeSugar": 0,
      "vitaminA": 0.158,
      "vitaminB2": 0.196,
      "vitaminB12": 0.9,
      "vitaminC": 0,
      "calcium": 28.8,
      "folate": 35.4,
      "iodine": 5.64,
      "iron": 1.043,
      "magnesium": 6,
      "zinc": 0.85,
      "omega3": 0.52700925,
      "omega6": 8.781291,
      "epa": 0,
      "dha": 45,
      "epaDha": 45
    }
  },
  {
    "key": "R090500006",
    "portion": 3,
    "energy": 26.533,
    "nutrients": {
      "protein": 0,
      "totalFat": 99.919,
      "saturatedFat": 14.634279,
      "freeSugar": 0,
      "vitaminA": 0.005,
      "vitaminB2": 0,
      "vitaminB12": 0,
      "vitaminC": 0,
      "calcium": 0,
      "folate": 0,
      "iodine": 0.003,
      "iron": 0.004,
      "magnesium": 0.03,
      "zinc": 0.001,
      "omega3": 0.87004864,
      "omega6": 8.43184,
      "epa": 0,
      "dha": 0,
      "epaDha": 0
    }
  },
  {
    "key": "R090500007",
    "portion": 3,
    "energy": 26.512,
    "nutrients": {
      "protein": 0,
      "totalFat": 100,
      "saturatedFat": 10.1626835,
      "freeSugar": 0,
      "vitaminA": 0,
      "vitaminB2": 0,
      "vitaminB12": 0,
      "vitaminC": 0,
      "calcium": 0.03,
      "folate": 0,
      "iodine": 0,
      "iron": 0,
      "magnesium": 0.03,
      "zinc": 0,
      "omega3": 53.771877,
      "omega6": 14.563216,
      "epa": 15,
      "dha": 30,
      "epaDha": 45
    }
  },
  {
    "key": "R090500008",
    "portion": 5,
    "energy": 14.08,
    "nutrients": {
      "protein": 0.015,
      "totalFat": 0,
      "saturatedFat": 0,
      "freeSugar": 0,
      "vitaminA": 0,
      "vitaminB2": 0,
      "vitaminB12": 0,
      "vitaminC": 0,
      "calcium": 0,
      "folate": 0,
      "iodine": 0,
      "iron": 0,
      "magnesium": 0,
      "zinc": 0,
      "omega3": 0,
      "omega6": 0,
      "epa": 0,
      "dha": 0,
      "epaDha": 0
    }
  },
  {
    "key": "R090600000",
    "portion": 50,
    "energy": 145.338,
    "nutrients": {
      "protein": 5.045,
      "totalFat": 5.503,
      "saturatedFat": 1.1989151,
      "freeSugar": 0,
      "vitaminA": 0,
      "vitaminB2": 0.04,
      "vitaminB12": 0,
      "vitaminC": 0,
      "calcium": 24.5,
      "folate": 22,
      "iodine": 0,
      "iron": 0.485,
      "magnesium": 11,
      "zinc": 0.4,
      "omega3": 0.3003344,
      "omega6": 2.03732,
      "epa": 0,
      "dha": 0,
      "epaDha": 0
    }
  },
  {
    "key": "R090600001",
    "portion": 60,
    "energy": 139.295,
    "nutrients": {
      "protein": 5.005,
      "totalFat": 5.851,
      "saturatedFat": 0.8639677,
      "freeSugar": 0,
      "vitaminA": 0.001,
      "vitaminB2": 0.071,
      "vitaminB12": 0,
      "vitaminC": 0,
      "calcium": 16.2,
      "folate": 11.4,
      "iodine": 1.26,
      "iron": 1.838,
      "magnesium": 54.6,
      "zinc": 1.445,
      "omega3": 0.17057325,
      "omega6": 2.5508454,
      "epa": 0,
      "dha": 0,
      "epaDha": 0
    }
  },
  {
    "key": "R090600002",
    "portion": 45,
    "energy": 95.443,
    "nutrients": {
      "protein": 2.412,
      "totalFat": 5.142,
      "saturatedFat": 0.51840377,
      "freeSugar": 0,
      "vitaminA": 0,
      "vitaminB2": 0.023,
      "vitaminB12": 0,
      "vitaminC": 0,
      "calcium": 10.35,
      "folate": 7.2,
      "iodine": 1.08,
      "iron": 0.7,
      "magnesium": 20.7,
      "zinc": 0.68,
      "omega3": 0.17822155,
      "omega6": 0.7850235,
      "epa": 0,
      "dha": 0,
      "epaDha": 0
    }
  },
  {
    "key": "R090600003",
    "portion": 70,
    "energy": 359.63,
    "nutrients": {
      "protein": 5.241,
      "totalFat": 57.452,
      "saturatedFat": 26.779833,
      "freeSugar": 0,
      "vitaminA": 0.177,
      "vitaminB2": 0.1,
      "vitaminB12": 0.07,
      "vitaminC": 0.221,
      "calcium": 35,
      "folate": 7,
      "iodine": 3.22,
      "iron": 0.494,
      "magnesium": 15.4,
      "zinc": 0.517,
      "omega3": 0.93546146,
      "omega6": 2.4437616,
      "epa": 0,
      "dha": 413.7,
      "epaDha": 413.7
    }
  },
  {
    "key": "R090600004",
    "portion": 81,
    "energy": 208.395,
    "nutrients": {
      "protein": 7.694,
      "totalFat": 21.211,
      "saturatedFat": 8.316406,
      "freeSugar": 0,
      "vitaminA": 0.032,
      "vitaminB2": 0.285,
      "vitaminB12": 0.11,
      "vitaminC": 0.402,
      "calcium": 48.1,
      "folate": 165.175,
      "iodine": 13.465,
      "iron": 2.992,
      "magnesium": 70.463,
      "zinc": 1.947,
      "omega3": 0.5868711,
      "omega6": 4.7059383,
      "epa": 0,
      "dha": 0,
      "epaDha": 0
    }
  },
  {
    "key": "R090600005",
    "portion": 88.6,
    "energy": 263.661,
    "nutrients": {
      "protein": 8.048,
      "totalFat": 20.118,
      "saturatedFat": 11.339541,
      "freeSugar": 0,
      "vitaminA": 0.041,
      "vitaminB2": 0.345,
      "vitaminB12": 0.07,
      "vitaminC": 0.467,
      "calcium": 114.345,
      "folate": 223.162,
      "iodine": 8.906,
      "iron": 5.795,
      "magnesium": 76.946,
      "zinc": 2.086,
      "omega3": 0.19016123,
      "omega6": 1.8600361,
      "epa": 0,
      "dha": 0.5,
      "epaDha": 0.5
    }
  }
]