[
  {
    "key": "R010700000",
    "portion": 319.02,
    "energy": 300.184,
    "nutrients": {
      "protein": 22.043,
      "totalFat": 29.259,
      "saturatedFat": 4.481927,
      "freeSugar": 0,
      "vitaminA": 0.549,
      "vitaminB2": 0.279,
      "vitaminB12": 0,
      "vitaminC": 47.926,
      "calcium": 299.396,
      "folate": 46.475,
      "iodine": 26.354,
      "iron": 6.345,
      "magnesium": 180.3,
      "zinc": 2.503,
      "omega3": 2.7705977,
      "omega6": 11.644438,
      "epa": 0.971,
      "dha": 0,
      "epaDha": 0.971
    }
  },
  {
    "key": "R010200020",
    "portion": 194.8,
    "energy": 299.055,
    "nutrients": {
      "protein": 15.321,
      "totalFat": 29.873,
      "saturatedFat": 6.216711,
      "freeSugar": 0,
      "vitaminA": 0.309,
      "vitaminB2": 0.322,
      "vitaminB12": 0.942,
      "vitaminC": 29.935,
      "calcium": 82.574,
      "folate": 67.823,
      "iodine": 20.908,
      "iron": 3.19,
      "magnesium": 55.404,
      "zinc": 2.117,
      "omega3": 2.414599,
      "omega6": 5.8833075,
      "epa": 0,
      "dha": 37.2,
      "epaDha": 37.2
    }
  },
  {
    "key": "R010400000",
    "portion": 211.5,
    "energy": 250.475,
    "nutrients": {
      "protein": 8.192,
      "totalFat": 30.992,
      "saturatedFat": 9.496531,
      "freeSugar": 0,
      "vitaminA": 0.1,
      "vitaminB2": 0.348,
      "vitaminB12": 0.461,
      "vitaminC": 1.157,
      "calcium": 168.416,
      "folate": 45.302,
      "iodine": 25.234,
      "iron": 2.231,
      "magnesium": 68.751,
      "zinc": 1.898,
      "omega3": 1.5135775,
      "omega6": 6.054622,
      "epa": 0.384,
      "dha": 24.185,
      "epaDha": 24.569
    }
  },
  {
    "key": "R010200001",
    "portion": 297.2,
    "energy": 282.418,
    "nutrients": {
      "protein": 8.534,
      "totalFat": 26.955,
      "saturatedFat": 3.2002463,
      "freeSugar": 0,
      "vitaminA": 1.119,
      "vitaminB2": 0.09,
      "vitaminB12": 0,
      "vitaminC": 45.709,
      "calcium": 49.078,
      "folate": 41.374,
      "iodine": 16.926,
      "iron": 2.334,
      "magnesium": 69.445,
      "zinc": 1.807,
      "omega3": 1.6624846,
      "omega6": 5.097821,
      "epa": 0,
      "dha": 0,
      "epaDha": 0
    }
  },
  {
    "key": "R010400003",
    "portion": 133.2,
    "energy": 248.097,
    "nutrients": {
      "protein": 6.249,
      "totalFat": 36.982,
      "saturatedFat": 3.9987786,
      "freeSugar": 0,
      "vitaminA": 0.034,
      "vitaminB2": 0.106,
      "vitaminB12": 0,
      "vitaminC": 5.565,
      "calcium": 104.323,
      "folate": 41.704,
      "iodine": 1.623,
      "iron": 2.198,
      "magnesium": 69.549,
      "zinc": 1.626,
      "omega3": 2.1000545,
      "omega6": 9.360179,
      "epa": 0.978,
      "dha": 0,
      "epaDha": 0.978
    }
  },
  {
    "key": "R010200006",
    "portion": 198.8,
    "energy": 301.966,
    "nutrients": {
      "protein": 15.627,
      "totalFat": 31.994,
      "saturatedFat": 9.028191,
      "freeSugar": 0,
      "vitaminA": 0.245,
      "vitaminB2": 0.288,
      "vitaminB12": 0.782,
      "vitaminC": 23.629,
      "calcium": 94.785,
      "folate": 95.714,
      "iodine": 25.349,
      "iron": 3.297,
      "magnesium": 63.449,
      "zinc": 2.101,
      "omega3": 1.1232609,
      "omega6": 5.2206235,
      "epa": 0,
      "dha": 33.525,
      "epaDha": 33.525
    }
  },
  {
    "key": "R010200008",
    "portion": 146.9,
    "energy": 296.651,
    "nutrients": {
      "protein": 8.535,
      "totalFat": 8.748,
      "saturatedFat": 2.4285562,
      "freeSugar": 0,
      "vitaminA": 1.183,
      "vitaminB2": 0.115,
      "vitaminB12": 0.11,
      "vitaminC": 21.926,
      "calcium": 32.948,
      "folate": 41.182,
      "iodine": 15.425,
      "iron": 1.564,
      "magnesium": 33.342,
      "zinc": 1.185,
      "omega3": 0.19571483,
      "omega6": 2.0600116,
      "epa": 0,
      "dha": 9.515,
      "epaDha": 9.515
    }
  },
  {
    "key": "R010500014",
    "portion": 241.719,
    "energy": 294.749,
    "nutrients": {
      "protein": 3.955,
      "totalFat": 10.892,
      "saturatedFat": 2.409899,
      "freeSugar": 0,
      "vitaminA": 2.967,
      "vitaminB2": 0.116,
      "vitaminB12": 0,
      "vitaminC": 57.75,
      "calcium": 56.933,
      "folate": 18.978,
      "iodine": 16.021,
      "iron": 2.382,
      "magnesium": 47.137,
      "zinc": 0.617,
      "omega3": 0.8180669,
      "omega6": 2.2301512,
      "epa": 0,
      "dha": 0,
      "epaDha": 0
    }
  },
  {
    "key": "R010400005",
    "portion": 190.9,
    "energy": 299.412,
    "nutrients": {
      "protein": 9.065,
      "totalFat": 34.115,
      "saturatedFat": 8.741109,
      "freeSugar": 0,
      "vitaminA": 0.042,
      "vitaminB2": 0.193,
      "vitaminB12": 0.302,
      "vitaminC": 4.738,
      "calcium": 133.278,
      "folate": 34.565,
      "iodine": 12.104,
      "iron": 2.465,
      "magnesium": 105.002,
      "zinc": 1.909,
      "omega3": 6.0415654,
      "omega6": 6.147661,
      "epa": 0.564,
      "dha": 0,
      "epaDha": 0.564
    }
  },
  {
    "key": "R010500001",
    "portion": 360.6,
    "energy": 299.942,
    "nutrients": {
      "protein": 10.251,
      "totalFat": 48.785,
      "saturatedFat": 27.526571,
      "freeSugar": 0,
      "vitaminA": 0.275,
      "vitaminB2": 0.387,
      "vitaminB12": 0.213,
      "vitaminC": 20.377,
      "calcium": 161.598,
      "folate": 29.642,
      "iodine": 59.585,
      "iron": 1.059,
      "magnesium": 38.048,
      "zinc": 0.844,
      "omega3": 0.81150687,
      "omega6": 2.0594962,
      "epa": 9.044,
      "dha": 6.384,
      "epaDha": 15.428
    }
  },
  {
    "key": "R010200000",
    "portion": 320,
    "energy": 300.319,
    "nutrients": {
      "protein": 7.505,
      "totalFat": 52.232,
      "saturatedFat": 17.416143,
      "freeSugar": 0,
      "vitaminA": 0.254,
      "vitaminB2": 0.2,
      "vitaminB12": 0.09,
      "vitaminC": 37.197,
      "calcium": 116.78,
      "folate": 44.865,
      "iodine": 38.747,
      "iron": 1.96,
      "magnesium": 58.11,
      "zinc": 1.377,
      "omega3": 0.66322476,
      "omega6": 4.125668,
      "epa": 3.825,
      "dha": 2.7,
      "epaDha": 6.525
    }
  },
  {
    "key": "R010B00010",
    "portion": 20,
    "energy": 58.584,
    "nutrients": {
      "protein": 1.591,
      "totalFat": 75.588,
      "saturatedFat": 17.099014,
      "freeSugar": 0,
      "vitaminA": 0.02,
      "vitaminB2": 0.027,
      "vitaminB12": 0.017,
      "vitaminC": 1.238,
      "calcium": 12,
      "folate": 8.021,
      "iodine": 3.385,
      "iron": 0.463,
      "magnesium": 18.07,
      "zinc": 0.351,
      "omega3": 0.39738324,
      "omega6": 10.654516,
      "epa": 0.229,
      "dha": 0.029,
      "epaDha": 0.258
    }
  },
  {
    "key": "R010B00011",
    "portion": 20,
    "energy": 56.602,
    "nutrients": {
      "protein": 1.158,
      "totalFat": 82.145,
      "saturatedFat": 16.80341,
      "freeSugar": 0,
      "vitaminA": 0.014,
      "vitaminB2": 0.021,
      "vitaminB12": 0.013,
      "vitaminC": 1.269,
      "calcium": 12.859,
      "folate": 6.972,
      "iodine": 5.213,
      "iron": 0.172,
      "magnesium": 6.806,
      "zinc": 0.149,
      "omega3": 5.835626,
      "omega6": 24.361599,
      "epa": 0.564,
      "dha": 0.398,
      "epaDha": 0.962
    }
  },
  {
    "key": "R010200013",
    "portion": 180.061,
    "energy": 300,
    "nutrients": {
      "protein": 18.862,
      "totalFat": 32.277,
      "saturatedFat": 15.188055,
      "freeSugar": 0,
      "vitaminA": 0.269,
      "vitaminB2": 0.383,
      "vitaminB12": 1.143,
      "vitaminC": 9.194,
      "calcium": 426.165,
      "folate": 61.845,
      "iodine": 32.039,
      "iron": 2.216,
      "magnesium": 59.67,
      "zinc": 3.278,
      "omega3": 0.827967,
      "omega6": 3.095223,
      "epa": 0,
      "dha": 0,
      "epaDha": 0
    }
  },
  {
    "key": "R010600000",
    "portion": 20,
    "energy": 12.642,
    "nutrients": {
      "protein": 0.204,
      "totalFat": 44.052,
      "saturatedFat": 4.4232907,
      "freeSugar": 0,
      "vitaminA": 0.023,
      "vitaminB2": 0.007,
      "vitaminB12": 0,
      "vitaminC": 3.065,
      "calcium": 3.526,
      "folate": 4.503,
      "iodine": 0.679,
      "iron": 0.091,
      "magnesium": 2.348,
      "zinc": 0.068,
      "omega3": 3.7843854,
      "omega6": 7.7068105,
      "epa": 0,
      "dha": 0,
      "epaDha": 0
    }
  },
  {
    "key": "R010200015",
    "portion": 312.5,
    "energy": 300.254,
    "nutrients": {
      "protein": 13.151,
      "totalFat": 29.443,
      "saturatedFat": 12.165546,
      "freeSugar": 0,
      "vitaminA": 0.253,
      "vitaminB2": 0.258,
      "vitaminB12": 0.087,
      "vitaminC": 82.814,
      "calcium": 109.899,
      "folate": 49.615,
      "iodine": 34.078,
      "iron": 2.543,
      "magnesium": 72.201,
      "zinc": 2.078,
      "omega3": 0.62937415,
      "omega6": 2.8580081,
      "epa": 0,
      "dha": 0,
      "epaDha": 0
    }
  },
  {
    "key": "R010500004",
    "portion": 45.171,
    "energy": 94.961,
    "nutrients": {
      "protein": 4.828,
      "totalFat": 32.016,
      "saturatedFat": 7.2756476,
      "freeSugar": 0,
      "vitaminA": 0.296,
      "vitaminB2": 0.124,
      "vitaminB12": 0.087,
      "vitaminC": 1.309,
      "calcium": 21.653,
      "folate": 14.527,
      "iodine": 1.951,
      "iron": 0.696,
      "magnesium": 46.905,
      "zinc": 0.644,
      "omega3": 0.70227885,
      "omega6": 11.135572,
      "epa": 0,
      "dha": 3.497,
      "epaDha": 3.497
    }
  },
  {
    "key": "R010200016",
    "portion": 190.7,
    "energy": 301.752,
    "nutrients": {
      "protein": 10.482,
      "totalFat": 32.478,
      "saturatedFat": 4.496753,
      "freeSugar": 0,
      "vitaminA": 0.136,
      "vitaminB2": 0.077,
      "vitaminB12": 0,
      "vitaminC": 3.408,
      "calcium": 34.135,
      "folate": 26.72,
      "iodine": 14.628,
      "iron": 2.288,
      "magnesium": 93.185,
      "zinc": 2.234,
      "omega3": 0.29185158,
      "omega6": 9.800638,
      "epa": 0,
      "dha": 0,
      "epaDha": 0
    }
  },
  {
    "key": "R010400020",
    "portion": 240.4,
    "energy": 299.58,
    "nutrients": {
      "protein": 7.08,
      "totalFat": 36.743,
      "saturatedFat": 3.9098818,
      "freeSugar": 0,
      "vitaminA": 0.018,
      "vitaminB2": 0.356,
      "vitaminB12": 0,
      "vitaminC": 23.256,
      "calcium": 207.246,
      "folate": 59.097,
      "iodine": 31.779,
      "iron": 2.328,
      "magnesium": 72.05,
      "zinc": 2.147,
      "omega3": 1.1203134,
      "omega6": 7.307845,
      "epa": 1.134,
      "dha": 0,
      "epaDha": 1.134
    }
  },
  {
    "key": "R010200018",
    "portion": 237.1,
    "energy": 310.751,
    "nutrients": {
      "protein": 10.238,
      "totalFat": 17.575,
      "saturatedFat": 2.5716755,
      "freeSugar": 0,
      "vitaminA": 0.155,
      "vitaminB2": 0.137,
      "vitaminB12": 0,
      "vitaminC": 29.688,
      "calcium": 149.694,
      "folate": 85.196,
      "iodine": 26.582,
      "iron": 3.058,
      "magnesium": 80.184,
      "zinc": 1.785,
      "omega3": 0.83852506,
      "omega6": 7.8081665,
      "epa": 1.79,
      "dha": 0,
      "epaDha": 1.79
    }
  },
  {
    "key": "R010500023",
    "portion": 503.91,
    "energy": 300.289,
    "nutrients": {
      "protein": 6.715,
      "totalFat": 26.156,
      "saturatedFat": 2.7308109,
      "freeSugar": 0,
      "vitaminA": 0.488,
      "vitaminB2": 0.338,
      "vitaminB12": 0,
      "vitaminC": 130.769,
      "calcium": 158.321,
      "folate": 139.384,
      "iodine": 6.708,
      "iron": 2.976,
      "magnesium": 94.503,
      "zinc": 0.998,
      "omega3": 0.781629,
      "omega6": 4.6582866,
      "epa": 0,
      "dha": 0,
      "epaDha": 0
    }
  },
  {
    "key": "R010200019",
    "portion": 265.4,
    "energy": 299.54,
    "nutrients": {
      "protein": 11.59,
      "totalFat": 20.381,
      "saturatedFat": 3.4556842,
      "freeSugar": 0,
      "vitaminA": 2.302,
      "vitaminB2": 0.141,
      "vitaminB12": 0,
      "vitaminC": 57.693,
      "calcium": 132.172,
      "folate": 40.944,
      "iodine": 20.642,
      "iron": 2.689,
      "magnesium": 73.922,
      "zinc": 1.242,
      "omega3": 1.739947,
      "omega6": 6.822396,
      "epa": 0.476,
      "dha": 0,
      "epaDha": 0.476
    }
  },
  {
    "key": "R030100023",
    "portion": 232.7,
    "energy": 300.757,
    "nutrients": {
      "protein": 7.945,
      "totalFat": 36.795,
      "saturatedFat": 18.382837,
      "freeSugar": 0,
      "vitaminA": 0.027,
      "vitaminB2": 0.101,
      "vitaminB12": 0,
      "vitaminC": 27.79,
      "calcium": 40.832,
      "folate": 46.76,
      "iodine": 15.725,
      "iron": 2.233,
      "magnesium": 76.97,
      "zinc": 1.289,
      "omega3": 0.34943128,
      "omega6": 3.5357373,
      "epa": 0,
      "dha": 0,
      "epaDha": 0
    }
  },
  {
    "key": "R030100022",
    "portion": 352.3,
    "energy": 300.131,
    "nutrients": {
      "protein": 12.154,
      "totalFat": 14.592,
      "saturatedFat": 1.7560159,
      "freeSugar": 0,
      "vitaminA": 3.17,
      "vitaminB2": 0.131,
      "vitaminB12": 0,
      "vitaminC": 44.4,
      "calcium": 83.082,
      "folate": 40.624,
      "iodine": 16.258,
      "iron": 3.293,
      "magnesium": 94.877,
      "zinc": 2.327,
      "omega3": 1.2333884,
      "omega6": 3.743988,
      "epa": 0,
      "dha": 0,
      "epaDha": 0
    }
  },
  {
    "key": "R030100019",
    "portion": 258.6,
    "energy": 299.917,
    "nutrients": {
      "protein": 12.407,
      "totalFat": 26.472,
      "saturatedFat": 5.4290724,
      "freeSugar": 0,
      "vitaminA": 0.142,
      "vitaminB2": 0.204,
      "vitaminB12": 0.696,
      "vitaminC": 17.235,
      "calcium": 51.503,
      "folate": 109.655,
      "iodine": 19.682,
      "iron": 4.478,
      "magnesium": 74.501,
      "zinc": 2.372,
      "omega3": 0.94137245,
      "omega6": 5.082479,
      "epa": 0.465,
      "dha": 34.8,
      "epaDha": 35.265
    }
  },
  {
    "key": "R030400031",
    "portion": 146.6,
    "energy": 249.929,
    "nutrients": {
      "protein": 10.357,
      "totalFat": 39.422,
      "saturatedFat": 11.384823,
      "freeSugar": 0,
      "vitaminA": 0.106,
      "vitaminB2": 0.251,
      "vitaminB12": 0.699,
      "vitaminC": 1.437,
      "calcium": 122.141,
      "folate": 42.165,
      "iodine": 12.388,
      "iron": 2.956,
      "magnesium": 58.2,
      "zinc": 1.904,
      "omega3": 1.1252943,
      "omega6": 5.961522,
      "epa": 0.501,
      "dha": 18.15,
      "epaDha": 18.651
    }
  },
  {
    "key": "R030100009",
    "portion": 280.9,
    "energy": 298.67,
    "nutrients": {
      "protein": 5.671,
      "totalFat": 27.038,
      "saturatedFat": 12.797073,
      "freeSugar": 0,
      "vitaminA": 0.428,
      "vitaminB2": 0.071,
      "vitaminB12": 0,
      "vitaminC": 28.717,
      "calcium": 37.049,
      "folate": 32.281,
      "iodine": 14.942,
      "iron": 2.795,
      "magnesium": 85.851,
      "zinc": 1.334,
      "omega3": 0.2392999,
      "omega6": 2.443527,
      "epa": 0,
      "dha": 0,
      "epaDha": 0
    }
  },
  {
    "key": "R030600001",
    "portion": 263.081,
    "energy": 299.648,
    "nutrients": {
      "protein": 9.244,
      "totalFat": 28.744,
      "saturatedFat": 3.7176478,
      "freeSugar": 0,
      "vitaminA": 0.373,
      "vitaminB2": 0.16,
      "vitaminB12": 0,
      "vitaminC": 68.694,
      "calcium": 118.94,
      "folate": 89.795,
      "iodine": 22.107,
      "iron": 3.544,
      "magnesium": 142.097,
      "zinc": 2.385,
      "omega3": 0.7383083,
      "omega6": 6.8179035,
      "epa": 0,
      "dha": 0,
      "epaDha": 0
    }
  },
  {
    "key": "R000000002",
    "portion": 252.4,
    "energy": 300.358,
    "nutrients": {
      "protein": 12.717,
      "totalFat": 26.464,
      "saturatedFat": 3.7738266,
      "freeSugar": 0,
      "vitaminA": 0.622,
      "vitaminB2": 0.32,
      "vitaminB12": 0,
      "vitaminC": 27.094,
      "calcium": 106.096,
      "folate": 39.15,
      "iodine": 27.12,
      "iron": 3.154,
      "magnesium": 104.024,
      "zinc": 2.581,
      "omega3": 0.81472176,
      "omega6": 5.8113523,
      "epa": 0,
      "dha": 0,
      "epaDha": 0
    }
  },
  {
    "key": "R000100002",
    "portion": 68.7,
    "energy": 126.362,
    "nutrients": {
      "protein": 6.184,
      "totalFat": 34.261,
      "saturatedFat": 4.272288,
      "freeSugar": 0,
      "vitaminA": 0.019,
      "vitaminB2": 0.063,
      "vitaminB12": 0,
      "vitaminC": 0.821,
      "calcium": 67.059,
      "folate": 27.199,
      "iodine": 15.566,
      "iron": 1.786,
      "magnesium": 53.928,
      "zinc": 1.104,
      "omega3": 2.322798,
      "omega6": 10.394209,
      "epa": 0.702,
      "dha": 0,
      "epaDha": 0.702
    }
  },
  {
    "key": "R000400000",
    "portion": 45.3,
    "energy": 113.014,
    "nutrients": {
      "protein": 3.446,
      "totalFat": 29.784,
      "saturatedFat": 3.0111053,
      "freeSugar": 0,
      "vitaminA": 0.081,
      "vitaminB2": 0.1,
      "vitaminB12": 0,
      "vitaminC": 1.12,
      "calcium": 21.778,
      "folate": 50.562,
      "iodine": 12.117,
      "iron": 1.094,
      "magnesium": 36.732,
      "zinc": 0.934,
      "omega3": 2.804395,
      "omega6": 12.387554,
      "epa": 0,
      "dha": 0,
      "epaDha": 0
    }
  },
  {
    "key": "R000500000",
    "portion": 25,
    "energy": 54.106,
    "nutrients": {
      "protein": 2.37,
      "totalFat": 63.829,
      "saturatedFat": 9.878412,
      "freeSugar": 0,
      "vitaminA": 0.051,
      "vitaminB2": 0.022,
      "vitaminB12": 0,
      "vitaminC": 12.852,
      "calcium": 7.411,
      "folate": 7.201,
      "iodine": 2.498,
      "iron": 0.431,
      "magnesium": 20.503,
      "zinc": 0.412,
      "omega3": 3.8999944,
      "omega6": 20.679506,
      "epa": 0,
      "dha": 0,
      "epaDha": 0
    }
  },
  {
    "key": "R000500001",
    "portion": 25,
    "energy": 49.122,
    "nutrients": {
      "protein": 1.694,
      "totalFat": 56.118,
      "saturatedFat": 5.4882355,
      "freeSugar": 0,
      "vitaminA": 0.021,
      "vitaminB2": 0.053,
      "vitaminB12": 0,
      "vitaminC": 3.817,
      "calcium": 29.199,
      "folate": 9.429,
      "iodine": 1.765,
      "iron": 0.428,
      "magnesium": 22.064,
      "zinc": 0.227,
      "omega3": 2.4932942,
      "omega6": 17.26288,
      "epa": 0,
      "dha": 0,
      "epaDha": 0
    }
  },
  {
    "key": "R000600003",
    "portion": 220.9,
    "energy": 300.19,
    "nutrients": {
      "protein": 10.893,
      "totalFat": 31.632,
      "saturatedFat": 3.1582396,
      "freeSugar": 0,
      "vitaminA": 0.058,
      "vitaminB2": 0.127,
      "vitaminB12": 0,
      "vitaminC": 35.818,
      "calcium": 62.162,
      "folate": 54.831,
      "iodine": 12.968,
      "iron": 2.543,
      "magnesium": 96.899,
      "zinc": 1.976,
      "omega3": 3.431165,
      "omega6": 12.504936,
      "epa": 0,
      "dha": 0,
      "epaDha": 0
    }
  },
  {
    "key": "R000600006",
    "portion": 101.8,
    "energy": 158.182,
    "nutrients": {
      "protein": 3.154,
      "totalFat": 39.852,
      "saturatedFat": 4.214355,
      "freeSugar": 0,
      "vitaminA": 0.17,
      "vitaminB2": 0.061,
      "vitaminB12": 0,
      "vitaminC": 4.355,
      "calcium": 38.616,
      "folate": 15.505,
      "iodine": 4.685,
      "iron": 0.956,
      "magnesium": 37.807,
      "zinc": 0.791,
      "omega3": 3.5116456,
      "omega6": 14.763734,
      "epa": 0.127,
      "dha": 6.56,
      "epaDha": 6.687
    }
  },
  {
    "key": "R000900001",
    "portion": 23.4,
    "energy": 78.354,
    "nutrients": {
      "protein": 2.347,
      "totalFat": 34.656,
      "saturatedFat": 3.0511746,
      "freeSugar": 0,
      "vitaminA": 0.001,
      "vitaminB2": 0.026,
      "vitaminB12": 0,
      "vitaminC": 0.025,
      "calcium": 13.193,
      "folate": 7.727,
      "iodine": 3.188,
      "iron": 0.968,
      "magnesium": 22.148,
      "zinc": 0.433,
      "omega3": 0.21222146,
      "omega6": 8.442695,
      "epa": 0,
      "dha": 0,
      "epaDha": 0
    }
  },
  {
    "key": "R000C00003",
    "portion": 21.1,
    "energy": 79.296,
    "nutrients": {
      "protein": 2.493,
      "totalFat": 53.098,
      "saturatedFat": 10.162182,
      "freeSugar": 0,
      "vitaminA": 0.18,
      "vitaminB2": 0.034,
      "vitaminB12": 0.014,
      "vitaminC": 0.389,
      "calcium": 19.765,
      "folate": 8.524,
      "iodine": 1.795,
      "iron": 0.631,
      "magnesium": 22.942,
      "zinc": 0.413,
      "omega3": 0.24431749,
      "omega6": 11.385517,
      "epa": 0.093,
      "dha": 0,
      "epaDha": 0.093
    }
  },
  {
    "key": "R000700001",
    "portion": 98.789,
    "energy": 143.062,
    "nutrients": {
      "protein": 5.602,
      "totalFat": 35.907,
      "saturatedFat": 4.314987,
      "freeSugar": 0,
      "vitaminA": 0.226,
      "vitaminB2": 0.066,
      "vitaminB12": 0,
      "vitaminC": 6.472,
      "calcium": 38.315,
      "folate": 18.743,
      "iodine": 8.271,
      "iron": 1.659,
      "magnesium": 56.774,
      "zinc": 1.178,
      "omega3": 2.1918714,
      "omega6": 12.42082,
      "epa": 0.283,
      "dha": 0,
      "epaDha": 0.283
    }
  },
  {
    "key": "R000A00005",
    "portion": 122.1,
    "energy": 299.362,
    "nutrients": {
      "protein": 7.768,
      "totalFat": 46.456,
      "saturatedFat": 8.136859,
      "freeSugar": 0,
      "vitaminA": 0.02,
      "vitaminB2": 0.214,
      "vitaminB12": 0,
      "vitaminC": 0.043,
      "calcium": 138.5,
      "folate": 28.505,
      "iodine": 20.346,
      "iron": 7.092,
      "magnesium": 127.141,
      "zinc": 2.636,
      "omega3": 1.0720769,
      "omega6": 8.41832,
      "epa": 0.519,
      "dha": 0,
      "epaDha": 0.519
    }
  },
  {
    "key": "R000300007",
    "portion": 237,
    "energy": 301.29,
    "nutrients": {
      "protein": 7.018,
      "totalFat": 30.92,
      "saturatedFat": 3.052324,
      "freeSugar": 0,
      "vitaminA": 0.004,
      "vitaminB2": 0.373,
      "vitaminB12": 0,
      "vitaminC": 2.331,
      "calcium": 214.68,
      "folate": 36.328,
      "iodine": 34.733,
      "iron": 2.475,
      "magnesium": 94.095,
      "zinc": 2.221,
      "omega3": 0.27577418,
      "omega6": 7.1553807,
      "epa": 0,
      "dha": 0,
      "epaDha": 0
    }
  },
  {
    "key": "R000800002",
    "portion": 25.038,
    "energy": 88.961,
    "nutrients": {
      "protein": 2.347,
      "totalFat": 72.627,
      "saturatedFat": 12.152354,
      "freeSugar": 0,
      "vitaminA": 0.012,
      "vitaminB2": 0.042,
      "vitaminB12": 0,
      "vitaminC": 0.447,
      "calcium": 17.564,
      "folate": 8.158,
      "iodine": 6.213,
      "iron": 0.719,
      "magnesium": 29.503,
      "zinc": 0.591,
      "omega3": 2.0321906,
      "omega6": 12.908491,
      "epa": 0,
      "dha": 0,
      "epaDha": 0
    }
  },
  {
    "key": "R000800004",
    "portion": 49.1,
    "energy": 72.357,
    "nutrients": {
      "protein": 2.635,
      "totalFat": 70.267,
      "saturatedFat": 7.7724504,
      "freeSugar": 0,
      "vitaminA": 0.007,
      "vitaminB2": 0.116,
      "vitaminB12": 0,
      "vitaminC": 1.413,
      "calcium": 63.5,
      "folate": 4.655,
      "iodine": 2.625,
      "iron": 0.382,
      "magnesium": 37.67,
      "zinc": 0.123,
      "omega3": 14.281314,
      "omega6": 16.89896,
      "epa": 10,
      "dha": 20,
      "epaDha": 30
    }
  },
  {
    "key": "R000E00001",
    "portion": 100,
    "energy": 423.979,
    "nutrients": {
      "protein": 12.091,
      "totalFat": 43.927,
      "saturatedFat": 15.631753,
      "freeSugar": 0,
      "vitaminA": 2.654,
      "vitaminB2": 0.139,
      "vitaminB12": 0,
      "vitaminC": 5.448,
      "calcium": 76.558,
      "folate": 33.558,
      "iodine": 3.773,
      "iron": 5.481,
      "magnesium": 153.699,
      "zinc": 2.547,
      "omega3": 0.077064194,
      "omega6": 7.7018256,
      "epa": 0.43,
      "dha": 0,
      "epaDha": 0.43
    }
  },
  {
    "key": "R000G00000",
    "portion": 153.75,
    "energy": 311.073,
    "nutrients": {
      "protein": 6.324,
      "totalFat": 50.798,
      "saturatedFat": 24.278837,
      "freeSugar": 0,
      "vitaminA": 0.004,
      "vitaminB2": 0.05,
      "vitaminB12": 0.15,
      "vitaminC": 0,
      "calcium": 129.113,
      "folate": 51.725,
      "iodine": 1.263,
      "iron": 7.843,
      "magnesium": 111.513,
      "zinc": 1.657,
      "omega3": 0.5615376,
      "omega6": 4.843453,
      "epa": 0,
      "dha": 0,
      "epaDha": 0
    }
  },
  {
    "key": "R000H00001",
    "portion": 205.6,
    "energy": 299.837,
    "nutrients": {
      "protein": 14.934,
      "totalFat": 62.324,
      "saturatedFat": 7.6382284,
      "freeSugar": 0,
      "vitaminA": 0.289,
      "vitaminB2": 0.273,
      "vitaminB12": 0,
      "vitaminC": 62.767,
      "calcium": 173.684,
      "folate": 74.787,
      "iodine": 24.926,
      "iron": 3.086,
      "magnesium": 127.309,
      "zinc": 1.654,
      "omega3": 6.6559424,
      "omega6": 26.246212,
      "epa": 10.476,
      "dha": 20.276,
      "epaDha": 30.752
    }
  }
]